Division,WeightClassKg,Place,Name,Team,BodyweightKg,Best3SquatKg,Best3BenchKg,Best3DeadliftKg,TotalKg,Equipment,Event,Sex,BirthDate
Boys,55.79,1,Fisher Letsos,Galveston Ball,55.7,113.4,86.18,136.08,335.66,Unlimited,SBD,M,
Boys,55.79,2,Johnson Braiden,Baytown Goose Creek Memorial,51.8,102.06,72.57,127.01,301.64,Unlimited,SBD,M,
Boys,59.87,1,Miguel Velez,League City Clear Creek,59.87,165.56,95.25,183.7,444.52,Unlimited,SBD,M,
Boys,59.87,2,Nathan Johnson,Baytown Goose Creek Memorial,59.33,131.54,140.61,145.15,417.3,Unlimited,SBD,M,
Boys,59.87,3,Deyler Poouchoc,Galveston Ball,59.87,104.33,54.43,120.2,278.96,Unlimited,SBD,M,
Boys,67.13,1,David Wiley,Baytown Goose Creek Memorial,65.36,183.7,111.13,183.7,478.54,Unlimited,SBD,M,
Boys,67.13,2,Hayden Foster,Galveston Ball,67.13,174.63,113.4,165.56,453.59,Unlimited,SBD,M,
Boys,74.84,1,Carsyn Segrest,Galveston Ball,72.57,183.7,120.2,183.7,487.61,Unlimited,SBD,M,
Boys,74.84,2,Collin McMurray,League City Clear Creek,68.49,158.76,97.52,165.56,421.84,Unlimited,SBD,M,
Boys,74.84,3,Salas Luis,Baytown Goose Creek Memorial,71.3,142.88,113.4,163.29,419.57,Unlimited,SBD,M,
Boys,74.84,4,Adam Mathews,Baytown Goose Creek Memorial,73.94,142.88,102.06,170.1,415.04,Unlimited,SBD,M,
Boys,74.84,5,Thomas Winters,Baytown Goose Creek Memorial,74.53,124.74,97.52,154.22,376.48,Unlimited,SBD,M,
Boys,74.84,6,Fernando Ramos,Baytown Goose Creek Memorial,70.58,131.54,83.91,154.22,369.68,Unlimited,SBD,M,
Boys,74.84,DQ,Malachi Gamble,League City Clear Creek,72.12,111.13,,,,Unlimited,SBD,M,
Boys,82.1,1,Stephen Jurbala,League City Clear Creek,79.83,199.58,113.4,197.31,510.29,Unlimited,SBD,M,
Boys,82.1,2,John Arenas,Baytown Goose Creek Memorial,79.38,188.24,115.67,183.7,487.61,Unlimited,SBD,M,
Boys,82.1,3,Donovan Coffman,League City Clear Creek,77.11,163.29,97.52,165.56,426.38,Unlimited,SBD,M,
Boys,82.1,4,Jordan Greer,League City Clear Creek,80.29,149.69,95.25,176.9,421.84,Unlimited,SBD,M,
Boys,89.81,1,Wyatt Smith,League City Clear Creek,88.45,167.83,104.33,201.85,474,Unlimited,SBD,M,
Boys,89.81,2,Cah'lil Ward,League City Clear Creek,85.28,163.29,102.06,188.24,453.59,Unlimited,SBD,M,
Boys,89.81,3,Juan Enciso,Baytown Goose Creek Memorial,89.45,163.29,102.06,154.22,419.57,Unlimited,SBD,M,
Boys,89.81,DQ,Jason Degrasse,Galveston Ball,86.27,,,,,Unlimited,SBD,M,
Boys,89.81,DQ,Justise Thomas,Galveston Ball,87.09,,,,,Unlimited,SBD,M,
Boys,99.79,1,Lawerence Collomore,Galveston Ball,95.25,188.24,120.2,192.78,501.22,Unlimited,SBD,M,
Boys,99.79,2,Charles Gundrum,Galveston Ball,95.71,165.56,115.67,183.7,464.93,Unlimited,SBD,M,
Boys,99.79,3,Patrcik Hicks,Baytown Goose Creek Memorial,96.21,165.56,90.72,204.12,460.4,Unlimited,SBD,M,
Boys,99.79,4,Jaxson Abel,League City Clear Creek,90.72,158.76,86.18,183.7,428.64,Unlimited,SBD,M,
Boys,99.79,5,Zeke Brining,Galveston Ball,98.43,102.06,83.91,138.35,324.32,Unlimited,SBD,M,
Boys,99.79,DQ,Aaron Raya,League City Clear Creek,99.34,149.69,145.15,,,Unlimited,SBD,M,
Boys,109.77,1,Hunter Haglund,Galveston Ball,109.32,192.78,129.27,192.78,514.83,Unlimited,SBD,M,
Boys,109.77,2,Micheletti Charles,Baytown Goose Creek Memorial,108.95,219.99,113.4,158.76,492.15,Unlimited,SBD,M,
Boys,109.77,3,Chase Osborne,League City Clear Creek,109.32,172.37,108.86,142.88,424.11,Unlimited,SBD,M,
Boys,124.74,1,Christian Craig,Baytown Goose Creek Memorial,115.85,190.51,142.88,238.14,571.53,Unlimited,SBD,M,
Boys,124.74,2,Corey Sanders,Galveston Ball,113.4,183.7,133.81,192.78,510.29,Unlimited,SBD,M,
Boys,124.74,3,Nolan Arredondo,League City Clear Creek,115.21,204.12,108.86,183.7,496.68,Unlimited,SBD,M,
Boys,124.74,4,Dylan Alfrord,Galveston Ball,112.94,156.49,124.74,192.78,474,Unlimited,SBD,M,
Boys,124.74,DQ,Tommy Fields,Galveston Ball,124.42,183.7,106.59,,,Unlimited,SBD,M,
Boys,139.71,1,Gunnar Chase,Galveston Ball,132.45,233.6,131.54,192.78,557.92,Unlimited,SBD,M,
Boys,139.71+,1,Adrian Arellano,Baytown Goose Creek Memorial,149.23,247.21,122.47,229.06,598.74,Unlimited,SBD,M,
