Place,Name,Sex,BirthDate,Age,Country,Equipment,Division,BodyweightKg,WeightClassKg,Squat1Kg,Squat2Kg,Squat3Kg,Best3SquatKg,Bench1Kg,Bench2Kg,Bench3Kg,Best3BenchKg,Deadlift1Kg,Deadlift2Kg,Deadlift3Kg,Best3DeadliftKg,TotalKg,Event,Team
1,Leila Warnes,F,1997-04-24,27,Australia,Sleeves,Open,70.15,72,120,130,-135,130,70,75,78,78,140,150,160,160,368,SBD,Australia
1,Debbie McGrath,F,1961-11-20,63,Australia,Sleeves,Open,76.65,84,80,82,83,83,48,50,-55,50,120,-122,130,130,263,SBD,Australia
1,Detslana Olsson,F,1982-09-04,42,Nauru,Sleeves,Open,93,100,130,140,-150,140,72,77,-80,77,110,120,130,130,347,SBD,Nauru
2,Monica Davis,F,2003-03-05,21,Australia,Sleeves,Open,100,100,100,105,110,110,60,65,70,70,110,120,-130,120,300,SBD,Australia
1,Kimberly Honesett,F,1983-04-30,41,Australia,Sleeves,Open,105.6,100+,105,115,125,125,75,80,-86,80,130,140,-150,140,345,SBD,Australia
2,Pancy Cook,F,1973-11-24,51,Nauru,Sleeves,Open,105.8,100+,110,120,130,130,-55,58,-64,58,102,112,122,122,310,SBD,Nauru
1,Blanco Olsson Wharton,M,1991-05-23,33,Nauru,Sleeves,Open,60,62,165,-175,175,175,130,137,-140,137,190,200,,200,512,SBD,Nauru
2,CJ Waqa,M,2002-12-19,22,Nauru,Sleeves,Open,60.15,62,140,-155,-155,140,100,105,-110,105,145,155,-160,155,400,SBD,Nauru
3,Mackenzie Napper,M,2014-12-18,10,Australia,Sleeves,Open,44.35,62,40,46,51,51,25,28,31,31,55,-60,-66,55,137,SBD,Australia
1,Kyle Notte,M,2008-08-19,16,Nauru,Sleeves,Open,67.5,69,-150,150,160,160,72,77,-81,77,125,135,145,145,382,SBD,Nauru
1,Wise Temaki,M,2002-05-27,22,Nauru,Sleeves,Open,83.95,85,230,240,-250,240,150,-160,160,160,240,255,257,257,657,SBD,Nauru
2,Stephen Hoffman,M,1957-05-29,67,Australia,Sleeves,Open,83,85,125,-135,-135,125,90,95,-96,95,180,193,203,203,423,SBD,Australia
1,Ethan Wilkinson,M,1998-11-08,26,Australia,Sleeves,Open,89.7,94,180,190,195,195,-140,140,-145,140,220,230,240,240,575,SBD,Australia
2,Luke Macarone,M,1994-09-19,30,Australia,Sleeves,Open,91.2,94,-175,190,200,200,131,141,151,151,200,210,220,220,571,SBD,Australia
3,Rourke Shipard,M,2001-11-05,23,Australia,Sleeves,Open,88.45,94,135,145,155,155,90,95,100,100,155,170,180,180,435,SBD,Australia
4,Michael Hipwood,M,1964-10-04,60,Australia,Sleeves,Open,88.1,94,105,115,125,125,75,80,85,85,125,135,145,145,355,SBD,Australia
1,Thomas Howlett,M,1995-08-10,29,Australia,Sleeves,Open,103.4,105,-190,190,200,200,140,150,-155,150,240,250,266,266,616,SBD,Australia
2,Chris Pitcher,M,1998-04-12,26,Australia,Sleeves,Open,103.8,105,205,215,225,225,140,150,155,155,215,225,235,235,615,SBD,Australia
DQ,Author Kepae,M,2001-01-23,24,Nauru,Sleeves,Open,104.6,105,270,-300,-300,270,140,155,160,160,-250,-250,-250,,,SBD,Nauru
1,Dave Napper,M,1987-05-11,37,Australia,Sleeves,Open,115.5,120,211,235,256,256,151,161,170,170,255,285,300,300,726,SBD,Australia
1,Khalib Bennett,M,1994-03-25,30,Australia,Sleeves,Open,125.8,120+,240,255,265,265,130,140,150,150,220,240,250,250,665,SBD,Australia
2,Cameron Hope,M,1974-11-06,50,Australia,Sleeves,Open,126.7,120+,136,150,-154,150,80,-81,,80,100,-101,-102,100,330,SBD,Australia
1,Nadeem Mihrshahi,M,2009-01-09,16,Australia,Sleeves,Open,61.55,62,,,,,108,114,-117,114,,,,,114,B,Australia
1,Robin Mihrshahi,M,1979-06-09,45,Australia,Sleeves,Open,68.65,69,,,,,122,127,-131,127,,,,,127,B,Australia
1,Jordan McLean,M,2008-02-06,17,Australia,Sleeves,Open,77.55,85,,,,,70,75,80,80,,,,,80,B,Australia
1,Patrick Roesch,M,1966-06-29,58,Australia,Sleeves,Open,93.1,94,,,,,115,125,-128,125,,,,,125,B,Australia
1,Angin Gadabu,M,1995-06-09,29,Nauru,Sleeves,Open,103.7,105,,,,,182,202,212,212,,,,,212,B,Nauru
2,John Dellow,M,1941-02-23,84,Australia,Sleeves,Open,98.5,105,,,,,90,95,100,100,,,,,100,B,Australia
