Division,WeightClassKg,Place,Name,Team,BodyweightKg,Best3SquatKg,Best3BenchKg,Best3DeadliftKg,TotalKg,Equipment,Event,Sex,BirthDate
Boys,59.87,1,Matthew Plumley,Paint Rock,59.42,92.99,49.9,108.86,251.74,Unlimited,SBD,M,
Boys,67.13,1,Slade Beloat,Santa Anna,65.77,133.81,79.38,181.44,394.63,Unlimited,SBD,M,
Boys,67.13,2,Brock Brown,Santa Anna,65.77,133.81,86.18,161.03,381.02,Unlimited,SBD,M,
Boys,67.13,3,Kevin Hernandez,Paint Rock,63.23,95.25,88.45,136.08,319.78,Unlimited,SBD,M,
Boys,67.13,4,Ezra Ruiz,Paint Rock,63.23,90.72,61.23,142.88,294.84,Unlimited,SBD,M,
Boys,67.13,5,Zack Tway,Paint Rock,65.41,92.99,72.57,108.86,274.42,Unlimited,SBD,M,
Boys,67.13,DQ,Trystian Walston,Paint Rock,61.23,,,,,Unlimited,SBD,M,
Boys,67.13,DQ,Elijah Rodriguez,Paint Rock,66.5,133.81,,,,Unlimited,SBD,M,
Boys,74.84,1,Markius McClure,Hermleigh,72.48,140.61,81.65,165.56,387.82,Unlimited,SBD,M,
Boys,74.84,2,Angel Briones,Paint Rock,71.76,142.88,92.99,149.69,385.55,Unlimited,SBD,M,
Boys,74.84,DQ,William Lloyd,Paint Rock,73.48,,,,,Unlimited,SBD,M,
Boys,82.1,1,Callum Slatton,Lohn,79.2,165.56,97.52,174.63,437.72,Unlimited,SBD,M,
Boys,82.1,2,Joey Hernandez,Paint Rock,81.28,136.08,111.13,183.7,430.91,Unlimited,SBD,M,
Boys,89.81,1,Johhny Reyes,Paint Rock,86.09,142.88,117.93,161.03,421.84,Unlimited,SBD,M,
Boys,89.81,2,Derek Hull,Santa Anna,83.28,122.47,72.57,163.29,358.34,Unlimited,SBD,M,
Boys,89.81,3,Steven Rodriguez,Paint Rock,85.46,124.74,81.65,127.01,333.39,Unlimited,SBD,M,
Boys,89.81,DQ,William Perry,Santa Anna,83.91,247.21,,,,Unlimited,SBD,M,
Boys,109.77,1,Arnulfo Campos III,Paint Rock,102.87,197.31,131.54,201.85,530.7,Unlimited,SBD,M,
Boys,124.74,1,Zaiden Harty,Hermleigh,124.1,181.44,95.25,181.44,458.13,Unlimited,SBD,M,
Boys,124.74,2,Shawn Halfman,Paint Rock,111.77,145.15,106.59,183.7,435.45,Unlimited,SBD,M,
Boys,124.74,3,Xavian Orasco,Paint Rock,113.31,108.86,102.06,190.51,401.43,Unlimited,SBD,M,
Boys,139.71,DQ,Caleb Taylor,Paint Rock,125.65,,,,,Unlimited,SBD,M,
Boys,139.71+,1,Isamael Altamirano,Paint Rock,205.93,129.27,83.91,174.63,387.82,Unlimited,SBD,M,
