Name,Country,Sex,BirthDate,BirthYear,Division,WeightClassKg,BodyweightKg,Squat1Kg,Squat2Kg,Squat3Kg,Best3SquatKg,Bench1Kg,Bench2Kg,Bench3Kg,Best3BenchKg,Deadlift1Kg,Deadlift2Kg,Deadlift3Kg,Best3DeadliftKg,TotalKg,Place,Event,Equipment
Juhani Rasilainen,Finland,M,,,Masters 4,74,73.8,,,,,100.0,110.0,,110.0,,,,,110.0,2,B,Raw
Kari Hollsten,Finland,M,,,Masters 4,93,91.45,,,,,130.0,-137.5,-142.5,130.0,,,,,130.0,2,B,Raw
Gerhard Baumeister,Germany,M,,,Masters 4,83,81.7,,,,,110.0,122.5,127.5,127.5,,,,,127.5,1,B,Raw
Stanisław Mentel,Poland,M,,,Masters 4,105,94.8,,,,,175.0,183.0,190.5,190.5,,,,,190.5,1,B,Raw
Pekka Valtanen,Finland,M,,,Masters 4,93,88.55,,,,,130.0,137.5,-145,137.5,,,,,137.5,1,B,Raw
Joachim Graupner,Germany,M,,,Masters 3,93,83.65,,,,,142.5,147.5,150.0,150.0,,,,,150.0,1,B,Raw
Franz Nerb,Germany,M,,,Masters 3,83,82.5,,,,,157.5,166.0,-167.5,166.0,,,,,166.0,1,B,Raw
Mark Notschaele,Luxembourg,M,,,Masters 3,120+,122.25,,,,,160.0,167.5,-172.5,167.5,,,,,167.5,1,B,Raw
Juha Kujala,Finland,M,,,Masters 3,66,63.9,,,,,95.0,97.5,102.5,102.5,,,,,102.5,1,B,Raw
Kalju Abner,Estonia,M,,,Masters 2,93,91.85,,,,,165.0,172.5,177.5,177.5,,,,,177.5,2,B,Raw
Jari Salste,Finland,M,,,Masters 2,83,82.55,,,,,125.0,127.5,130.0,130.0,,,,,130.0,6,B,Raw
Kjell Furesund,Norway,M,,,Masters 2,120+,128.45,,,,,170.0,-177.5,-177.5,170.0,,,,,170.0,5,B,Raw
Volodymyr Moroz,Ukraine,M,,,Masters 2,59,58.75,,,,,77.5,85.0,87.5,87.5,,,,,87.5,3,B,Raw
Oleksandr Chernyshov,Ukraine,M,,,Masters 2,66,65.8,,,,,125.0,132.5,-135,132.5,,,,,132.5,1,B,Raw
Matthew Vincent,Luxembourg,M,,,Masters 2,105,103.05,,,,,150.0,-157.5,-157.5,150.0,,,,,150.0,8,B,Raw
Petri Rinkinen,Finland,M,,,Masters 2,105,102.85,,,,,172.5,-177.5,-182.5,172.5,,,,,172.5,5,B,Raw
János Cserna,Hungary,M,,,Masters 2,120+,129.0,,,,,200.0,205.0,-210,205.0,,,,,205.0,2,B,Raw
Janne Palmu,Finland,M,,,Masters 2,74,72.85,,,,,130.0,-132.5,-137.5,130.0,,,,,130.0,3,B,Raw
Maik Staegemann,Germany,M,,,Masters 2,66,64.95,,,,,125.0,130.0,-135,130.0,,,,,130.0,2,B,Raw
Vesa Hartikainen,Finland,M,,,Masters 2,83,82.3,,,,,145.0,147.5,155.0,155.0,,,,,155.0,3,B,Raw
Thomas Kraemer,Germany,M,,,Masters 2,105,103.45,,,,,-165,170.0,-182.5,170.0,,,,,170.0,6,B,Raw
Christian Klein,Germany,M,,,Masters 2,59,58.7,,,,,117.5,120.0,123.0,123.0,,,,,123.0,1,B,Raw
Gennadii Poliakov,Germany,M,,,Masters 2,83,81.9,,,,,137.5,142.5,-147.5,142.5,,,,,142.5,4,B,Raw
Pasi Putkonen,Finland,M,,,Masters 2,105,104.35,,,,,177.5,-187.5,-190,177.5,,,,,177.5,4,B,Raw
Viacheslav Petrov,Ukraine,M,,,Masters 2,120,119.25,,,,,190.0,197.5,-207.5,197.5,,,,,197.5,3,B,Raw
Ihor Hevko,Ukraine,M,,,Masters 2,105,95.4,,,,,180.0,-187.5,-187.5,180.0,,,,,180.0,3,B,Raw
Bartosz Żelazko,Poland,M,,,Masters 2,74,73.5,,,,,140.0,142.5,145.0,145.0,,,,,145.0,1,B,Raw
Yaroslav Sytar,Ukraine,M,,,Masters 2,120+,139.9,,,,,177.5,182.5,-187.5,182.5,,,,,182.5,3,B,Raw
Jan Kluwe,Germany,M,,,Masters 2,93,90.65,,,,,160.0,165.0,167.5,167.5,,,,,167.5,3,B,Raw
Thorsten Hinz,Germany,M,,,Masters 2,120+,130.8,,,,,190.0,202.5,210.0,210.0,,,,,210.0,1,B,Raw
Stanislav Janes,Slovakia,M,,,Masters 2,120,113.9,,,,,195.0,205.0,-215,205.0,,,,,205.0,2,B,Raw
Adem Bıyıkoğlu,Turkey,M,,,Masters 2,83,82.55,,,,,-162.5,165.0,-175,165.0,,,,,165.0,2,B,Raw
Thomas Wetzstein,Austria,M,,,Masters 2,93,92.6,,,,,162.5,167.5,-170,167.5,,,,,167.5,4,B,Raw
Sven Mueller,Germany,M,,,Masters 1,120,119.05,,,,,212.5,-220,-220,212.5,,,,,212.5,2,B,Raw
Péter Belme,Hungary,M,,,Masters 1,105,100.35,,,,,172.5,180.0,-187.5,180.0,,,,,180.0,4,B,Raw
Anders Henriksson,Sweden,M,,,Open,105,104.5,,,,,210.0,-217.5,-220,210.0,,,,,210.0,5,B,Raw
Christian Beckmann,Germany,M,,,Masters 1,66,65.35,,,,,132.5,135.0,-140,135.0,,,,,135.0,1,B,Raw
Ronny Kreitl,Germany,M,,,Masters 1,105,95.3,,,,,170.0,177.5,-180,177.5,,,,,177.5,5,B,Raw
Sławomir Jasica,Poland,M,,,Masters 1,105,97.2,,,,,180.0,185.0,-190,185.0,,,,,185.0,3,B,Raw
Kornél Schauer,Hungary,M,,,Open,120,119.35,,,,,215.0,220.0,-227.5,220.0,,,,,220.0,2,B,Raw
Jani Haapamäki,Finland,M,,,Masters 1,74,73.55,,,,,160.0,167.5,-175,167.5,,,,,167.5,2,B,Raw
Rubeni Karkusashvili,Georgia,M,,,Open,120,114.9,,,,,150.0,,,150.0,,,,,150.0,8,B,Raw
Mariusz Marciniak,Poland,M,,,Masters 1,93,92.6,,,,,175.0,-182.5,195.0,195.0,,,,,195.0,3,B,Raw
Stefan Mohr,Germany,M,,,Masters 1,59,58.4,,,,,102.5,107.5,110.0,110.0,,,,,110.0,2,B,Raw
Kenan Abel,Germany,M,,,Masters 1,74,73.85,,,,,145.0,150.0,-155,150.0,,,,,150.0,3,B,Raw
Eriks Kanbergs,Latvia,M,,,Masters 1,93,88.3,,,,,192.5,-197.5,197.5,197.5,,,,,197.5,2,B,Raw
Giorgi Bejashvili,Georgia,M,,,Open,66,65.4,,,,,150.0,152.5,-157.5,152.5,,,,,152.5,3,B,Raw
Adam Balawejder,Poland,M,,,Masters 1,83,80.55,,,,,-170,172.5,180.0,180.0,,,,,180.0,2,B,Raw
Linas Palivonas,Lithuania,M,,,Masters 1,120,119.0,,,,,202.5,210.0,-220,210.0,,,,,210.0,3,B,Raw
Levani Giligashvili,Georgia,M,,,Open,74,73.35,,,,,167.5,175.0,180.0,180.0,,,,,180.0,2,B,Raw
Radek Pochylý,Czechia,M,,,Masters 1,120+,149.6,,,,,200.0,-207.5,-207.5,200.0,,,,,200.0,4,B,Raw
Janne Jääskeläinen,Finland,M,,,Masters 1,120+,137.55,,,,,220.0,230.0,-240,230.0,,,,,230.0,2,B,Raw
Bartłomiej Wirek,Poland,M,,,Masters 1,74,72.65,,,,,167.5,172.5,-178,172.5,,,,,172.5,1,B,Raw
Michael Pawlowski,Germany,M,,,Masters 1,83,81.8,,,,,172.5,177.5,182.5,182.5,,,,,182.5,1,B,Raw
Eirik Jørgensen,Norway,M,,,Masters 1,120,118.0,,,,,180.0,187.5,190.0,190.0,,,,,190.0,4,B,Raw
Tapio Peltokangas,Finland,M,,,Masters 1,66,65.4,,,,,130.0,135.0,-142.5,135.0,,,,,135.0,2,B,Raw
Teemu Tapanainen,Finland,M,,,Masters 1,83,82.15,,,,,147.5,-155,-155,147.5,,,,,147.5,4,B,Raw
Juha Sutinen,Finland,M,,,Masters 1,93,92.05,,,,,160.0,170.0,-175,170.0,,,,,170.0,4,B,Raw
André Hentschel,Germany,M,,,Masters 1,105,104.8,,,,,192.5,197.5,-202.5,197.5,,,,,197.5,1,B,Raw
Marco Frigerio,Italy,M,,,Masters 1,93,89.7,,,,,200.0,202.5,205.0,205.0,,,,,205.0,1,B,Raw
Tsotne Bezhashvili,Georgia,M,,,Open,66,65.95,,,,,172.5,182.5,-187.5,182.5,,,,,182.5,1,B,Raw
Alexander Brück,Germany,M,,,Open,120,119.35,,,,,205.0,-212.5,-212.5,205.0,,,,,205.0,4,B,Raw
Ivan Chuprinko,Ukraine,M,,,Open,83,75.9,,,,,200.0,210.0,-220.5,210.0,,,,,210.0,1,B,Raw
Lahiru Ranathungage,UK,M,,,Open,59,58.1,,,,,125.0,130.0,135.0,135.0,,,,,135.0,5,B,Raw
Genadi Otiashvili,Georgia,M,,,Open,83,81.65,,,,,192.5,200.0,205.0,205.0,,,,,205.0,3,B,Raw
Marko Piyadeth Krause,Germany,M,,,Open,93,91.7,,,,,190.0,200.0,202.5,202.5,,,,,202.5,3,B,Raw
Markus Patschke,Germany,M,,,Open,120+,162.5,,,,,247.5,252.5,-257.5,252.5,,,,,252.5,1,B,Raw
Tadas Grimaila,Lithuania,M,,,Open,120+,132.9,,,,,207.5,212.5,217.5,217.5,,,,,217.5,8,B,Raw
Mads Pedersen,Denmark,M,,,Open,83,81.9,,,,,182.5,190.0,195.0,195.0,,,,,195.0,5,B,Raw
Antti Tommila,Finland,M,,,Open,120+,151.5,,,,,-230,230.0,-247.5,230.0,,,,,230.0,5,B,Raw
Ashley Liston,UK,M,,,Open,105,104.25,,,,,-212.5,217.5,222.5,222.5,,,,,222.5,3,B,Raw
Nikola Vuković,Serbia,M,,,Open,105,104.15,,,,,185.0,-190,-190,185.0,,,,,185.0,10,B,Raw
John Slattery,Ireland,M,,,Open,120+,143.1,,,,,200.0,212.5,-222.5,212.5,,,,,212.5,9,B,Raw
Benjamin Haugk,Germany,M,,,Open,83,82.35,,,,,162.5,-170,-170,162.5,,,,,162.5,11,B,Raw
Levani Mtiulishvili,Georgia,M,,,Open,105,103.9,,,,,220.0,227.5,-230,227.5,,,,,227.5,2,B,Raw
Michał Łysoń,Poland,M,,,Open,66,65.05,,,,,130.0,-137.5,137.5,137.5,,,,,137.5,4,B,Raw
Christopher Dufour,Belgium,M,,,Open,93,90.45,,,,,155.0,165.0,-170,165.0,,,,,165.0,7,B,Raw
Joni Tajakka,Finland,M,,,Open,105,104.6,,,,,-225,230.0,-240.5,230.0,,,,,230.0,1,B,Raw
Chesney Goossens,Belgium,M,,,Open,74,73.15,,,,,165.0,175.0,-180,175.0,,,,,175.0,3,B,Raw
Romuald Massé,France,M,,,Open,120+,148.8,,,,,240.0,-247.5,-247.5,240.0,,,,,240.0,4,B,Raw
Paulius Morkvėnas,Lithuania,M,,,Open,105,103.8,,,,,205.0,215.0,217.5,217.5,,,,,217.5,4,B,Raw
Josef Eriksson,Sweden,M,,,Open,93,92.4,,,,,215.0,220.0,-227.5,220.0,,,,,220.0,1,B,Raw
Vasyl Kropyvnytskyi,Ukraine,M,,,Open,59,57.9,,,,,137.5,-142.5,-142.5,137.5,,,,,137.5,4,B,Raw
Tim Molkens,Belgium,M,,,Open,83,82.45,,,,,160.0,167.5,172.5,172.5,,,,,172.5,9,B,Raw
Ivan Kryha,Ukraine,M,,,Open,120,117.85,,,,,220.0,225.0,227.5,227.5,,,,,227.5,1,B,Raw
Jürgen Kraushofer,Austria,M,,,Open,83,81.95,,,,,200.0,205.0,-207.5,205.0,,,,,205.0,4,B,Raw
Louis Keightley-Smith,UK,M,,,Open,120,118.2,,,,,170.0,180.0,182.5,182.5,,,,,182.5,7,B,Raw
Jaideep Wasu,UK,M,,,Open,83,82.15,,,,,160.0,167.5,-175,167.5,,,,,167.5,10,B,Raw
Samuel Hajnik,Slovakia,M,,,Open,120+,155.05,,,,,-240,240.0,245.0,245.0,,,,,245.0,3,B,Raw
Christoph Koch,Germany,M,,,Open,105,103.5,,,,,200.0,-205,-205,200.0,,,,,200.0,6,B,Raw
Eddie Berglund,Sweden,M,,,Open,74,72.65,,,,,195.0,-205,205.0,205.0,,,,,205.0,1,B,Raw
Volodymyr Tsaturian,Ukraine,M,,,Open,83,82.75,,,,,195.0,202.5,207.5,207.5,,,,,207.5,2,B,Raw
Lars Leenders,Belgium,M,,,Open,74,72.85,,,,,160.0,-165,-165,160.0,,,,,160.0,4,B,Raw
Cenk Koçak,Turkey,M,,,Open,120+,145.75,,,,,240.0,247.5,-252.5,247.5,,,,,247.5,2,B,Raw
Jovan Todorović,Serbia,M,,,Open,120,112.25,,,,,195.0,-205,-205,195.0,,,,,195.0,5,B,Raw
Ben Gibson #1,UK,M,,,Open,120+,179.6,,,,,210.0,220.0,-227.5,220.0,,,,,220.0,7,B,Raw
Mantas Jucius,Lithuania,M,,,Open,120,106.5,,,,,185.0,187.5,190.0,190.0,,,,,190.0,6,B,Raw
Maximilian Buehrer,Germany,M,,,Open,105,104.95,,,,,192.5,-200,-200,192.5,,,,,192.5,9,B,Raw
Victor Gaultier,Switzerland,M,,,Open,59,57.95,,,,,140.0,145.0,150.0,150.0,,,,,150.0,2,B,Raw
Federico Tosca,Italy,M,,,Open,83,82.55,,,,,185.0,195.0,-202.5,195.0,,,,,195.0,6,B,Raw
Martin Madsen,Denmark,M,,,Open,83,81.55,,,,,-180,-185,185.0,185.0,,,,,185.0,7,B,Raw
Léo Ottinger,France,M,,,Open,93,91.6,,,,,-217.5,217.5,-225,217.5,,,,,217.5,2,B,Raw
Natan Balogh,Hungary,M,,,Open,83,82.3,,,,,-165,-165,-165,-165,,,,,,DQ,B,Raw
Felix Pfleiderer,Germany,M,,,Juniors,120+,174.9,,,,,217.5,-232.5,232.5,232.5,,,,,232.5,2,B,Raw
Temur Samkharadze,Georgia,M,,,Juniors,120+,157.4,,,,,240.0,-256.5,-256.5,240.0,,,,,240.0,1,B,Raw
Tom Field,UK,M,,,Juniors,83,81.8,,,,,170.0,180.0,185.0,185.0,,,,,185.0,3,B,Raw
Aybars Lap,Turkey,M,,,Juniors,83,82.3,,,,,142.5,-150,-155,142.5,,,,,142.5,11,B,Raw
Oleh Chebotaiev,Ukraine,M,,,Juniors,74,72.95,,,,,155.0,160.0,162.5,162.5,,,,,162.5,3,B,Raw
Petr Milichovský,Czechia,M,,,Juniors,105,104.2,,,,,190.0,197.5,-207.5,197.5,,,,,197.5,3,B,Raw
Riccardo Ferolo,Italy,M,,,Juniors,93,90.7,,,,,187.5,197.5,205.0,205.0,,,,,205.0,1,B,Raw
Jonathan Henningsson,Sweden,M,,,Juniors,105,98.85,,,,,215.0,225.0,234.0,234.0,,,,,234.0,1,B,Raw
Brandon Patterson,Ireland,M,,,Juniors,74,73.45,,,,,145.0,155.0,160.0,160.0,,,,,160.0,6,B,Raw
Fred Martin,UK,M,,,Juniors,83,82.3,,,,,162.5,170.0,-177.5,170.0,,,,,170.0,7,B,Raw
Matthias David Pitscheider,Austria,M,,,Juniors,83,81.85,,,,,182.5,187.5,190.0,190.0,,,,,190.0,2,B,Raw
Alexandre Barsanti,France,M,,,Juniors,93,91.4,,,,,192.5,200.0,-207.5,200.0,,,,,200.0,3,B,Raw
Tornike Paatashvili,Georgia,M,,,Juniors,120,109.45,,,,,205.0,212.5,217.5,217.5,,,,,217.5,1,B,Raw
Noah Mayer,Germany,M,,,Juniors,93,92.6,,,,,165.0,175.0,-185,175.0,,,,,175.0,7,B,Raw
Axel Samuelsson,Sweden,M,,,Juniors,93,90.25,,,,,195.0,202.5,-210,202.5,,,,,202.5,2,B,Raw
Illia Trokhymchuk,Ukraine,M,,,Juniors,66,64.3,,,,,130.0,135.0,-150,135.0,,,,,135.0,2,B,Raw
Matthys Parizot,France,M,,,Juniors,74,73.15,,,,,157.5,162.5,165.0,165.0,,,,,165.0,2,B,Raw
Nathan Britton,UK,M,,,Juniors,120+,177.4,,,,,205.0,215.0,-227.5,215.0,,,,,215.0,4,B,Raw
Dario Merbeler,Germany,M,,,Juniors,120,119.4,,,,,185.0,192.5,200.0,200.0,,,,,200.0,3,B,Raw
Alan Baron,France,M,,,Juniors,105,103.85,,,,,187.5,195.0,-200,195.0,,,,,195.0,4,B,Raw
Jaba Sepiashvili,Georgia,M,,,Juniors,59,58.35,,,,,152.0,157.0,-163.5,157.0,,,,,157.0,1,B,Raw
Batuhan Tecimen,Turkey,M,,,Juniors,74,73.0,,,,,150.0,157.5,162.5,162.5,,,,,162.5,4,B,Raw
Hermanni Järvenpää,Finland,M,,,Juniors,105,104.8,,,,,190.0,-200,,190.0,,,,,190.0,6,B,Raw
Emil Lundgren,Sweden,M,,,Juniors,83,80.2,,,,,185.0,192.5,200.0,200.0,,,,,200.0,1,B,Raw
Jason Magerat,Belgium,M,,,Juniors,74,73.5,,,,,162.5,170.0,175.0,175.0,,,,,175.0,1,B,Raw
Aleko Sidanovi,Georgia,M,,,Juniors,66,64.1,,,,,140.0,147.5,152.5,152.5,,,,,152.5,1,B,Raw
Philipp Lehner,Austria,M,,,Juniors,120,118.95,,,,,197.5,205.0,-210,205.0,,,,,205.0,2,B,Raw
Patrik Bálint,Hungary,M,,,Juniors,83,82.1,,,,,-162.5,162.5,172.5,172.5,,,,,172.5,5,B,Raw
Erminijus Maselskis,Lithuania,M,,,Juniors,83,78.75,,,,,150.0,155.0,-160,155.0,,,,,155.0,10,B,Raw
Milan Vyncke,Belgium,M,,,Juniors,74,73.25,,,,,152.5,160.0,-167.5,160.0,,,,,160.0,5,B,Raw
Ramazan Namazovi,Georgia,M,,,Juniors,74,72.95,,,,,157.5,-162.5,-162.5,157.5,,,,,157.5,7,B,Raw
Maksym Chubok,Ukraine,M,,,Juniors,93,92.4,,,,,175.0,-182.5,-182.5,175.0,,,,,175.0,6,B,Raw
Emilio Zhou,Austria,M,,,Juniors,83,82.4,,,,,172.5,182.5,185.0,185.0,,,,,185.0,4,B,Raw
Oisin Blaney Shorte,Ireland,M,,,Juniors,93,91.15,,,,,162.5,170.0,-175,170.0,,,,,170.0,8,B,Raw
Martin Řehák,Czechia,M,,,Juniors,74,73.6,,,,,152.5,-162.5,-165,152.5,,,,,152.5,11,B,Raw
Andria Mikautadze,Georgia,M,,,Juniors,53,52.85,,,,,80.0,85.0,90.0,90.0,,,,,90.0,1,B,Raw
Simon Dafner,Germany,M,,,Sub-Juniors,59,56.7,,,,,110.0,-112.5,-115,110.0,,,,,110.0,5,B,Raw
Giorgi Gelashvili,Georgia,M,,,Sub-Juniors,53,51.8,,,,,110.0,120.5,-125,120.5,,,,,120.5,1,B,Raw
Zura Gvinianidze,Georgia,M,,,Sub-Juniors,59,57.55,,,,,125.0,-131,-131,125.0,,,,,125.0,2,B,Raw
David Lawlor,Ireland,M,,,Sub-Juniors,83,80.75,,,,,122.5,-127.5,127.5,127.5,,,,,127.5,6,B,Raw
Dániel Sajben,Hungary,M,,,Sub-Juniors,59,57.7,,,,,100.0,105.0,107.5,107.5,,,,,107.5,6,B,Raw
Zakhar Miroshnychenko,Ukraine,M,,,Sub-Juniors,74,73.5,,,,,130.0,137.5,145.0,145.0,,,,,145.0,2,B,Raw
Kristóf Márk Szűcs,Hungary,M,,,Sub-Juniors,83,81.75,,,,,120.0,-127.5,127.5,127.5,,,,,127.5,7,B,Raw
Dusan Sagal,Slovakia,M,,,Sub-Juniors,120,117.5,,,,,130.0,140.0,147.5,147.5,,,,,147.5,4,B,Raw
Pavol Ragula,Slovakia,M,,,Sub-Juniors,66,63.85,,,,,130.0,-137.5,137.5,137.5,,,,,137.5,2,B,Raw
Matěj Kukuča,Czechia,M,,,Sub-Juniors,105,104.15,,,,,160.0,170.0,177.5,177.5,,,,,177.5,1,B,Raw
Marek Molnár,Slovakia,M,,,Sub-Juniors,93,91.8,,,,,145.0,155.0,160.0,160.0,,,,,160.0,1,B,Raw
Sampo Porsanger,Finland,M,,,Sub-Juniors,66,65.6,,,,,-120,120.0,-127.5,120.0,,,,,120.0,5,B,Raw
Valdas Vasiliauskas,Lithuania,M,,,Sub-Juniors,120+,149.25,,,,,150.0,160.0,-167.5,160.0,,,,,160.0,3,B,Raw
Pavel Benda,Czechia,M,,,Sub-Juniors,120,118.25,,,,,180.0,200.0,-208.5,200.0,,,,,200.0,1,B,Raw
David Jenco,Slovakia,M,,,Sub-Juniors,83,82.55,,,,,132.5,137.5,-140,137.5,,,,,137.5,4,B,Raw
Mico Hamalainen,Finland,M,,,Sub-Juniors,120,118.0,,,,,142.5,147.5,150.0,150.0,,,,,150.0,3,B,Raw
Maksym Holenko,Ukraine,M,,,Sub-Juniors,66,65.7,,,,,125.0,130.0,-132.5,130.0,,,,,130.0,4,B,Raw
Viljami Javanainen,Finland,M,,,Sub-Juniors,74,73.5,,,,,140.0,-150,-150,140.0,,,,,140.0,5,B,Raw
Tomas Dirda,Lithuania,M,,,Sub-Juniors,74,72.0,,,,,135.0,140.0,142.5,142.5,,,,,142.5,3,B,Raw
Yaroslav Babiak,Ukraine,M,,,Sub-Juniors,120+,140.7,,,,,170.0,180.0,190.0,190.0,,,,,190.0,1,B,Raw
Ronan Dunwell,Ireland,M,,,Sub-Juniors,93,88.85,,,,,132.5,140.0,142.5,142.5,,,,,142.5,3,B,Raw
Vencel Balog,Hungary,M,,,Sub-Juniors,66,65.0,,,,,130.0,-137.5,137.5,137.5,,,,,137.5,3,B,Raw
Stanislav Yaremenko,Ukraine,M,,,Sub-Juniors,59,58.3,,,,,125.0,-130.5,130.5,130.5,,,,,130.5,1,B,Raw
Arsen Semkiv,Ukraine,M,,,Sub-Juniors,120,105.2,,,,,127.5,132.5,-140,132.5,,,,,132.5,5,B,Raw
Giorgi Khvistani,Georgia,M,,,Sub-Juniors,120+,153.6,,,,,160.0,167.5,170.0,170.0,,,,,170.0,2,B,Raw
Ernestas Juodis,Lithuania,M,,,Sub-Juniors,83,80.25,,,,,155.0,160.0,-165,160.0,,,,,160.0,3,B,Raw
Mate Seregely,Hungary,M,,,Sub-Juniors,74,68.0,,,,,100.0,-105,-105,100.0,,,,,100.0,6,B,Raw
Oleksandr Ponomarenko,Ukraine,M,,,Sub-Juniors,66,65.6,,,,,-132.5,132.5,140.0,140.0,,,,,140.0,1,B,Raw
Franco Bulzoni,Italy,M,,,Sub-Juniors,83,82.05,,,,,180.0,185.0,-187.5,185.0,,,,,185.0,2,B,Raw
Andrii Lokhvytskyi,Ukraine,M,,,Sub-Juniors,59,57.9,,,,,105.0,110.0,112.5,112.5,,,,,112.5,4,B,Raw
Pavlo Mykytchuk,Ukraine,M,,,Sub-Juniors,53,52.45,,,,,85.0,92.5,-95,92.5,,,,,92.5,2,B,Raw
Mick Ellender,UK,M,,,Masters 4,93,92.0,,,,,90.0,100.0,105.0,105.0,,,,,105.0,3,B,Raw
Claude Sitruk,France,M,,,Masters 4,74,71.65,,,,,115.0,120.0,-126,120.0,,,,,120.0,1,B,Raw
Dainis Reinholds,Latvia,M,,,Masters 4,120+,125.25,,,,,-165,-165,165.0,165.0,,,,,165.0,1,B,Raw
Boumedienne Bensalah,France,M,,,Masters 4,105,102.8,,,,,120.0,122.5,,122.5,,,,,122.5,2,B,Raw
Andrej Hlinka,Slovakia,M,,,Masters 4,66,65.05,,,,,70.0,75.0,80.0,80.0,,,,,80.0,1,B,Raw
Serge Myrtil,France,M,,,Masters 3,93,88.55,,,,,140.0,-142.5,,140.0,,,,,140.0,3,B,Raw
Stephen Vineburg,UK,M,,,Masters 3,83,81.9,,,,,95.0,-102.5,-107.5,95.0,,,,,95.0,4,B,Raw
Patrick Evrard,France,M,,,Masters 3,66,64.15,,,,,90.0,-97.5,-100,90.0,,,,,90.0,2,B,Raw
Rodrigo Manuel Rodríguez Piñeiro,Spain,M,,,Masters 3,105,99.75,,,,,120.0,127.5,130.0,130.0,,,,,130.0,5,B,Raw
Grzegorz Leski,Poland,M,,,Masters 3,83,81.5,,,,,97.5,102.5,-107.5,102.5,,,,,102.5,3,B,Raw
Ladislav Horny,Slovakia,M,,,Masters 3,105,104.05,,,,,137.5,142.5,-147.5,142.5,,,,,142.5,4,B,Raw
Gilles Mandrick,France,M,,,Masters 3,93,91.9,,,,,140.0,145.0,150.0,150.0,,,,,150.0,2,B,Raw
Tomas Ring,Sweden,M,,,Masters 3,83,82.75,,,,,137.5,145.0,-150,145.0,,,,,145.0,2,B,Raw
Chris Cooper,UK,M,,,Masters 3,105,103.5,,,,,140.0,142.5,150.0,150.0,,,,,150.0,3,B,Raw
Andy Rigby,UK,M,,,Masters 3,120,109.45,,,,,190.0,202.0,204.0,204.0,,,,,204.0,1,B,Raw
Frans van der Putten,Netherlands,M,,,Masters 3,105,100.3,,,,,175.0,180.0,185.0,185.0,,,,,185.0,1,B,Raw
Fabrice Leroy,France,M,,,Masters 3,120,106.2,,,,,150.0,-160,-160,150.0,,,,,150.0,3,B,Raw
Claude Simian,France,M,,,Masters 3,105,102.15,,,,,160.0,170.0,-182.5,170.0,,,,,170.0,2,B,Raw
Branko Suzić,Slovenia,M,,,Masters 3,120,109.0,,,,,170.0,177.5,185.0,185.0,,,,,185.0,2,B,Raw
Ben Epe,Netherlands,M,,,Masters 2,83,82.05,,,,,-135,135.0,142.5,142.5,,,,,142.5,5,B,Raw
Robin van der Mee,Netherlands,M,,,Masters 2,105,103.35,,,,,180.0,187.5,-190,187.5,,,,,187.5,1,B,Raw
Darren Ball,UK,M,,,Masters 2,120+,123.45,,,,,165.0,170.0,-175,170.0,,,,,170.0,4,B,Raw
Esa Metsälä,Finland,M,,,Masters 2,66,65.05,,,,,97.5,102.5,-105,102.5,,,,,102.5,4,B,Raw
Andrew Miles,UK,M,,,Masters 2,83,81.7,,,,,107.5,112.5,115.0,115.0,,,,,115.0,7,B,Raw
Martin Haglöf,Sweden,M,,,Masters 2,66,64.5,,,,,120.0,125.0,-130,125.0,,,,,125.0,3,B,Raw
Christophe Lesourd #1,France,M,,,Masters 2,59,58.65,,,,,-107.5,107.5,-112.5,107.5,,,,,107.5,2,B,Raw
Kenneth Ekborg,Sweden,M,,,Masters 2,93,91.7,,,,,177.5,182.5,-190,182.5,,,,,182.5,1,B,Raw
Sheridan Wray,UK,M,,,Masters 2,105,98.15,,,,,175.0,185.0,-190,185.0,,,,,185.0,2,B,Raw
Jean-Pierre Nembrot,France,M,,,Masters 2,74,72.85,,,,,127.5,132.5,135.0,135.0,,,,,135.0,2,B,Raw
Frédéric Vildaer,France,M,,,Masters 2,105,102.3,,,,,145.0,152.5,157.5,157.5,,,,,157.5,7,B,Raw
Barrie Tavener,UK,M,,,Masters 2,83,82.55,,,,,165.0,170.0,-175,170.0,,,,,170.0,1,B,Raw
Scott Simon #1,UK,M,,,Masters 2,120,116.4,,,,,205.0,212.5,220.5,220.5,,,,,220.5,1,B,Raw
Darko Glušac,Serbia,M,,,Masters 1,120,114.4,,,,,160.0,167.5,-172.5,167.5,,,,,167.5,5,B,Raw
Thomas Verdoucq,France,M,,,Masters 1,74,69.05,,,,,130.0,-132.5,,130.0,,,,,130.0,4,B,Raw
Dariusz Wszoła,Poland,M,,,Open,59,58.75,,,,,132.5,140.0,-147.5,140.0,,,,,140.0,3,B,Raw
Milan Smiljanić,Serbia,M,,,Masters 1,120+,149.0,,,,,215.0,225.0,-232.5,225.0,,,,,225.0,3,B,Raw
Patrick van der Putten,Netherlands,M,,,Masters 1,105,104.3,,,,,180.0,187.5,-197.5,187.5,,,,,187.5,2,B,Raw
Tario Teraiharoa,France,M,,,Masters 1,120+,191.1,,,,,225.0,235.0,-240,235.0,,,,,235.0,1,B,Raw
Dimitri Bonnay,France,M,,,Masters 1,120,113.4,,,,,210.0,217.5,225.0,225.0,,,,,225.0,1,B,Raw
William van der Struis,Netherlands,M,,,Masters 1,83,82.5,,,,,147.5,155.0,157.5,157.5,,,,,157.5,3,B,Raw
William Rezaee,France,M,,,Masters 1,59,58.0,,,,,120.0,-125,125.0,125.0,,,,,125.0,1,B,Raw
Andrei Caliani-Vainer,Romania,M,,,Open,120+,150.4,,,,,215.0,225.0,-240,225.0,,,,,225.0,6,B,Raw
Vladimir Zapryanov,Bulgaria,M,,,Open,93,92.35,,,,,200.0,202.5,-205,202.5,,,,,202.5,4,B,Raw
Fredrik Eskil Myrvang,Norway,M,,,Open,59,57.4,,,,,157.5,162.5,-167.5,162.5,,,,,162.5,1,B,Raw
Trevor Jordan,UK,M,,,Open,120,117.4,,,,,200.0,205.0,207.5,207.5,,,,,207.5,3,B,Raw
Antonio Lores Sánchez,Spain,M,,,Open,66,65.2,,,,,145.0,150.0,155.0,155.0,,,,,155.0,2,B,Raw
Ashley Watson #2,UK,M,,,Open,105,104.15,,,,,190.0,197.5,-200,197.5,,,,,197.5,7,B,Raw
Teemu Hällfors,Finland,M,,,Open,83,83.0,,,,,175.0,180.0,-187.5,180.0,,,,,180.0,8,B,Raw
Joseph Watson,UK,M,,,Open,120+,121.35,,,,,192.5,202.5,210.0,210.0,,,,,210.0,10,B,Raw
Ricardo Temblador Fabra,Spain,M,,,Open,93,92.05,,,,,157.5,162.5,167.5,167.5,,,,,167.5,6,B,Raw
Serdar Ekinci,Turkey,M,,,Open,120+,149.95,,,,,170.0,172.5,-180,172.5,,,,,172.5,11,B,Raw
Nino van Rikxoort,Netherlands,M,,,Open,105,104.75,,,,,187.5,195.0,197.5,197.5,,,,,197.5,8,B,Raw
Jakub Dobiáš,Czechia,M,,,Open,93,92.3,,,,,180.0,-192.5,-192.5,180.0,,,,,180.0,5,B,Raw
Sertaç Bulgan,Turkey,M,,,Juniors,120,117.35,,,,,180.0,192.5,-207.5,192.5,,,,,192.5,5,B,Raw
Kirill Sakharov,UK,M,,,Juniors,105,104.14,,,,,180.0,190.0,-197.5,190.0,,,,,190.0,5,B,Raw
Luuk Tiel,Netherlands,M,,,Juniors,83,80.85,,,,,155.0,-162.5,162.5,162.5,,,,,162.5,9,B,Raw
Michail Radev,Bulgaria,M,,,Juniors,83,80.8,,,,,167.5,-177.5,-177.5,167.5,,,,,167.5,8,B,Raw
Ayhan Eraycan Düzgün,Turkey,M,,,Juniors,105,102.8,,,,,185.0,192.5,205.0,205.0,,,,,205.0,2,B,Raw
Bailey James,UK,M,,,Juniors,59,58.3,,,,,105.0,110.0,115.0,115.0,,,,,115.0,3,B,Raw
Mirza Toptaş,Turkey,M,,,Juniors,120+,144.65,,,,,210.0,222.5,-225,222.5,,,,,222.5,3,B,Raw
Jakub Novotný,Czechia,M,,,Juniors,74,72.8,,,,,150.0,155.0,-160,155.0,,,,,155.0,10,B,Raw
Jasper Kovacs,Netherlands,M,,,Juniors,74,73.85,,,,,147.5,152.5,157.5,157.5,,,,,157.5,8,B,Raw
Eren Sencer Öztürk,Turkey,M,,,Juniors,93,92.65,,,,,177.5,185.0,-200,185.0,,,,,185.0,5,B,Raw
Kemal Ergin,Netherlands,M,,,Juniors,59,58.2,,,,,120.0,127.5,132.5,132.5,,,,,132.5,2,B,Raw
Kacper Białas,Poland,M,,,Juniors,66,59.35,,,,,95.0,102.5,107.5,107.5,,,,,107.5,3,B,Raw
Bruno de Louw,Netherlands,M,,,Juniors,74,72.15,,,,,147.5,150.0,155.0,155.0,,,,,155.0,9,B,Raw
Deban Hedi,UK,M,,,Juniors,74,73.95,,,,,140.0,147.5,-152.5,147.5,,,,,147.5,13,B,Raw
Alan Ramić,Slovenia,M,,,Juniors,93,92.35,,,,,172.5,182.5,187.5,187.5,,,,,187.5,4,B,Raw
Moises Jimenes Fernandez,Spain,M,,,Juniors,120,117.0,,,,,172.5,180.0,-185,180.0,,,,,180.0,6,B,Raw
Krzysztof Perlik,Poland,M,,,Juniors,74,73.8,,,,,137.5,-145,150.0,150.0,,,,,150.0,12,B,Raw
Dawid Pietrykowski,Poland,M,,,Juniors,120+,125.3,,,,,152.5,160.0,-165,160.0,,,,,160.0,5,B,Raw
Muhammet Sami Aslan,Turkey,M,,,Juniors,83,82.85,,,,,162.5,172.5,-187.5,172.5,,,,,172.5,6,B,Raw
Branislav Vanga,Slovakia,M,,,Juniors,120,111.25,,,,,185.0,195.0,-200,195.0,,,,,195.0,4,B,Raw
Noah Williams #1,UK,M,,,Juniors,66,60.6,,,,,97.5,105.0,-110,105.0,,,,,105.0,4,B,Raw
Matic Gabrovec,Slovenia,M,,,Sub-Juniors,93,89.45,,,,,127.5,135.0,-142.5,135.0,,,,,135.0,4,B,Raw
Matic Koplan,Slovenia,M,,,Sub-Juniors,105,100.8,,,,,145.0,150.0,-160,150.0,,,,,150.0,3,B,Raw
Musa Dağdeviren,Turkey,M,,,Sub-Juniors,74,73.7,,,,,147.5,155.0,-181,155.0,,,,,155.0,1,B,Raw
Nezih Merdan Özçoban,Turkey,M,,,Sub-Juniors,105,95.05,,,,,-140,145.0,157.5,157.5,,,,,157.5,2,B,Raw
Theodor Tvete,Norway,M,,,Sub-Juniors,83,81.65,,,,,165.0,172.5,185.0,185.0,,,,,185.0,1,B,Raw
Jake Tucker #1,UK,M,,,Sub-Juniors,83,82.15,,,,,127.5,132.5,-137.5,132.5,,,,,132.5,5,B,Raw
Patryk Chylinski,Poland,M,,,Sub-Juniors,59,58.8,,,,,90.0,97.5,-102.5,97.5,,,,,97.5,7,B,Raw
Maksim Zhila,Turkey,M,,,Sub-Juniors,120+,134.85,,,,,150.0,-160,-160,150.0,,,,,150.0,4,B,Raw
Necati Kadir Yıldız,Turkey,M,,,Sub-Juniors,74,73.9,,,,,132.5,137.5,142.5,142.5,,,,,142.5,4,B,Raw
Mikołaj Kawecki,Poland,M,,,Sub-Juniors,93,91.8,,,,,140.0,142.5,145.0,145.0,,,,,145.0,2,B,Raw
Szymon Gruszka,Poland,M,,,Sub-Juniors,120,107.3,,,,,145.0,152.5,157.5,157.5,,,,,157.5,2,B,Raw
Çağın Yeşiltepe,Turkey,M,,,Sub-Juniors,59,58.75,,,,,105.0,112.5,115.0,115.0,,,,,115.0,3,B,Raw
Alphan Gürel,Turkey,M,,,Sub-Juniors,53,51.45,,,,,57.5,65.0,-70,65.0,,,,,65.0,3,B,Raw
Françoise Heligon,France,F,,,Masters 4,52,49.8,,,,,40.0,42.5,-45,42.5,,,,,42.5,1,B,Raw
Andrée Duboux,France,F,,,Masters 4,57,54.3,,,,,45.0,47.5,50.0,50.0,,,,,50.0,2,B,Raw
Anita Thimm,Germany,F,,,Masters 4,57,54.65,,,,,57.5,59.0,60.0,60.0,,,,,60.0,1,B,Raw
Liisa Tiensuu-Hirvonen,Finland,F,,,Masters 4,63,60.3,,,,,50.0,52.5,57.5,57.5,,,,,57.5,1,B,Raw
Irja Määttänen,Finland,F,,,Masters 4,76,74.85,,,,,55.0,57.5,60.0,60.0,,,,,60.0,1,B,Raw
Valentyna Kokourova,Ukraine,F,,,Masters 4,63,61.2,,,,,35.0,40.0,-42.5,40.0,,,,,40.0,2,B,Raw
Evelyne Herbin,France,F,,,Masters 3,63,62.45,,,,,60.0,65.0,-67.5,65.0,,,,,65.0,1,B,Raw
Joelle Lemarchand,France,F,,,Masters 3,84,78.05,,,,,52.5,55.0,-57.5,55.0,,,,,55.0,3,B,Raw
Janice Hawes,UK,F,,,Masters 3,84,79.0,,,,,50.0,55.0,-60,55.0,,,,,55.0,4,B,Raw
Ursula Häuser,Germany,F,,,Masters 3,76,72.2,,,,,60.0,65.0,-70,65.0,,,,,65.0,3,B,Raw
Susanne Bäckström,Sweden,F,,,Masters 3,84,76.25,,,,,60.0,62.5,65.0,65.0,,,,,65.0,2,B,Raw
Anne Hellem,Norway,F,,,Masters 3,84+,95.45,,,,,62.5,65.0,-67.5,65.0,,,,,65.0,2,B,Raw
Brigitte Landon,France,F,,,Masters 3,52,49.45,,,,,52.5,55.0,-57.5,55.0,,,,,55.0,1,B,Raw
Patricia Maciejewski,France,F,,,Masters 3,69,68.3,,,,,75.0,80.0,-83.5,80.0,,,,,80.0,1,B,Raw
Åsa Halvarsson,Sweden,F,,,Masters 3,84,76.75,,,,,65.0,70.0,75.0,75.0,,,,,75.0,1,B,Raw
Regina Haas,Germany,F,,,Masters 3,76,72.1,,,,,87.5,-92.5,92.5,92.5,,,,,92.5,1,B,Raw
Jackie Blasbery,UK,F,,,Masters 3,84+,98.35,,,,,70.0,80.0,85.0,85.0,,,,,85.0,1,B,Raw
Gro-Berit Stavheim,Norway,F,,,Masters 3,76,72.55,,,,,70.0,72.5,75.0,75.0,,,,,75.0,2,B,Raw
Kari Holmen Sunnarvik,Norway,F,,,Masters 2,69,67.0,,,,,67.5,72.5,-75,72.5,,,,,72.5,3,B,Raw
Carina Solhag,Sweden,F,,,Masters 2,57,56.35,,,,,60.0,62.5,-65,62.5,,,,,62.5,3,B,Raw
Magdolna Petróczki,Hungary,F,,,Masters 2,52,51.0,,,,,70.0,75.0,-77.5,75.0,,,,,75.0,1,B,Raw
Florence Leccese,France,F,,,Masters 2,69,67.7,,,,,77.5,80.0,-82.5,80.0,,,,,80.0,2,B,Raw
Anita Traasdahl,Norway,F,,,Masters 2,57,56.25,,,,,60.0,62.5,65.0,65.0,,,,,65.0,2,B,Raw
Karina Müller-Freyer,Germany,F,,,Masters 2,84,82.45,,,,,70.0,-75,,70.0,,,,,70.0,4,B,Raw
Angela Lauder,UK,F,,,Masters 2,84,83.25,,,,,72.5,77.5,80.0,80.0,,,,,80.0,3,B,Raw
Eva-Maria Gall,Germany,F,,,Masters 2,84+,106.95,,,,,100.0,-107.5,107.5,107.5,,,,,107.5,1,B,Raw
Ingrid Walter,Austria,F,,,Masters 2,63,59.85,,,,,65.0,67.5,-70,67.5,,,,,67.5,3,B,Raw
Rachel Spragg,UK,F,,,Masters 2,63,62.4,,,,,57.5,60.0,62.5,62.5,,,,,62.5,4,B,Raw
Géraldine Verlaine,France,F,,,Masters 2,52,51.1,,,,,70.0,72.5,-75,72.5,,,,,72.5,2,B,Raw
Bálintné Katona,Hungary,F,,,Masters 2,57,54.35,,,,,70.0,72.5,75.0,75.0,,,,,75.0,1,B,Raw
Heidi Sighovd,Norway,F,,,Masters 2,76,72.65,,,,,72.5,-77.5,-77.5,72.5,,,,,72.5,3,B,Raw
Tutta Mattsson,Finland,F,,,Masters 2,84,83.2,,,,,90.0,95.0,-97.5,95.0,,,,,95.0,2,B,Raw
Kirsi Lehmuskanta,Finland,F,,,Masters 2,84+,109.85,,,,,-60,60.0,-65,60.0,,,,,60.0,4,B,Raw
Joanne Laird,UK,F,,,Masters 2,84+,133.8,,,,,-100,-105,-105,-100,,,,,,DQ,B,Raw
Karen McKendry,UK,F,,,Masters 2,76,72.8,,,,,-75,75.0,-80,75.0,,,,,75.0,2,B,Raw
Ielja Strik,Netherlands,F,,,Open,84,82.95,,,,,127.5,132.5,-137.5,132.5,,,,,132.5,1,B,Raw
Guðný Ásta Snorradóttir,Iceland,F,,,Masters 2,84+,110.8,,,,,100.0,102.5,105.0,105.0,,,,,105.0,2,B,Raw
Tiina Voho,Finland,F,,,Masters 2,76,75.35,,,,,100.0,109.0,-110.5,109.0,,,,,109.0,1,B,Raw
Laufey Agnarsdóttir,Iceland,F,,,Masters 2,84+,101.9,,,,,95.0,97.5,-100,97.5,,,,,97.5,3,B,Raw
Erika Salamon,Hungary,F,,,Open,57,55.65,,,,,92.5,95.0,100.0,100.0,,,,,100.0,5,B,Raw
Nataliya Didyuk,Ukraine,F,,,Masters 2,63,62.6,,,,,70.0,75.0,-77.5,75.0,,,,,75.0,1,B,Raw
Hanna Järventausta,Finland,F,,,Masters 2,63,62.1,,,,,67.5,72.5,-75,72.5,,,,,72.5,2,B,Raw
Caroline Svarven,Sweden,F,,,Masters 2,69,67.45,,,,,82.5,85.0,90.0,90.0,,,,,90.0,1,B,Raw
Nataliya Ivankova,Ukraine,F,,,Open,47,46.9,,,,,60.0,-65,67.5,67.5,,,,,67.5,3,B,Raw
Stéphanie Bastien,France,F,,,Masters 2,84,82.1,,,,,92.5,95.0,-102.5,95.0,,,,,95.0,1,B,Raw
Jadwiga Radwańska',Poland,F,,,Masters 1,52,51.05,,,,,70.0,75.0,77.5,77.5,,,,,77.5,1,B,Raw
Natasja Martis,Netherlands,F,,,Masters 1,63,62.55,,,,,90.0,95.0,97.5,97.5,,,,,97.5,1,B,Raw
Petra Höglund,Sweden,F,,,Masters 1,84,76.8,,,,,85.0,90.0,-92.5,90.0,,,,,90.0,3,B,Raw
Jana Kroiss,Austria,F,,,Masters 1,76,75.05,,,,,85.0,90.0,-92.5,90.0,,,,,90.0,2,B,Raw
Pirita Ruusulaakso,Finland,F,,,Masters 1,63,59.9,,,,,75.0,77.5,-80,77.5,,,,,77.5,3,B,Raw
Joanne Parkin,UK,F,,,Masters 1,84+,120.0,,,,,100.0,105.0,107.5,107.5,,,,,107.5,2,B,Raw
Georgina Palmer,UK,F,,,Masters 1,76,75.35,,,,,70.0,-75,-75,70.0,,,,,70.0,4,B,Raw
Mélisa Meunier,France,F,,,Masters 1,63,59.4,,,,,72.5,75.0,-77.5,75.0,,,,,75.0,4,B,Raw
Helen Carrington,UK,F,,,Masters 1,84,83.5,,,,,75.0,77.5,80.0,80.0,,,,,80.0,5,B,Raw
Pauliina Suomela,Finland,F,,,Masters 1,76,73.5,,,,,100.0,105.0,-110,105.0,,,,,105.0,1,B,Raw
Oksana Hordiienko,Ukraine,F,,,Masters 1,57,56.5,,,,,60.0,65.0,-70,65.0,,,,,65.0,2,B,Raw
Jessica Sinikoski,Finland,F,,,Masters 1,84,76.1,,,,,92.5,97.5,100.0,100.0,,,,,100.0,1,B,Raw
Ina Scholz,Germany,F,,,Masters 1,69,68.95,,,,,85.0,90.0,-95,90.0,,,,,90.0,2,B,Raw
Clare Conway,UK,F,,,Masters 1,63,62.1,,,,,60.0,62.5,-65,62.5,,,,,62.5,5,B,Raw
Debby van Bogaert,Netherlands,F,,,Masters 1,84+,97.3,,,,,97.5,102.5,-105,102.5,,,,,102.5,3,B,Raw
Gitana Lipskienė,Lithuania,F,,,Masters 1,84,77.1,,,,,92.5,-95,-95,92.5,,,,,92.5,2,B,Raw
Niina Köninki,Finland,F,,,Masters 1,63,61.6,,,,,87.5,92.5,95.0,95.0,,,,,95.0,2,B,Raw
Giorgia Pratesi,Italy,F,,,Masters 1,57,56.75,,,,,100.0,105.5,-110,105.5,,,,,105.5,1,B,Raw
Mari Engberg,Finland,F,,,Masters 1,69,68.4,,,,,95.0,105.0,110.0,110.0,,,,,110.0,1,B,Raw
Delyth Jones,UK,F,,,Masters 1,76,70.25,,,,,-77.5,77.5,80.0,80.0,,,,,80.0,3,B,Raw
Stéphanie Faivre,France,F,,,Open,84,82.2,,,,,115.0,120.0,-125,120.0,,,,,120.0,3,B,Raw
Kate Clarke,UK,F,,,Masters 1,52,51.75,,,,,65.0,70.0,-77.5,70.0,,,,,70.0,2,B,Raw
Rebecca Coggle,UK,F,,,Masters 1,84+,151.8,,,,,120.0,127.5,135.0,135.0,,,,,135.0,1,B,Raw
Hanna Karhu,Finland,F,,,Masters 1,69,67.95,,,,,75.0,-80,80.0,80.0,,,,,80.0,3,B,Raw
Zuzana Bitterová,Czechia,F,,,Masters 1,84+,113.95,,,,,97.5,102.5,-105,102.5,,,,,102.5,4,B,Raw
Erica Sellstedt,Sweden,F,,,Masters 1,69,68.15,,,,,80.0,-82.5,-82.5,80.0,,,,,80.0,4,B,Raw
Clare Patterson,Ireland,F,,,Open,84+,94.9,,,,,130.0,-135,-135,130.0,,,,,130.0,4,B,Raw
Johanna Laitinen,Finland,F,,,Open,84+,113.0,,,,,142.5,147.5,152.5,152.5,,,,,152.5,3,B,Raw
Zsanett Palágyi,Hungary,F,,,Open,69,65.95,,,,,110.0,-112.5,112.5,112.5,,,,,112.5,3,B,Raw
Ankie Timmers,Luxembourg,F,,,Open,84,83.55,,,,,120.0,122.5,-127.5,122.5,,,,,122.5,2,B,Raw
Raphaela Jungmann,Austria,F,,,Open,69,68.55,,,,,107.5,-112.5,-112.5,107.5,,,,,107.5,5,B,Raw
Ágnes Szabó,Hungary,F,,,Open,84+,116.55,,,,,142.5,147.5,155.0,155.0,,,,,155.0,1,B,Raw
Johanna Kuronen,Finland,F,,,Open,52,51.55,,,,,90.0,92.5,95.0,95.0,,,,,95.0,1,B,Raw
Malin Olofsson,Finland,F,,,Open,84,83.5,,,,,90.0,-95,-95,90.0,,,,,90.0,4,B,Raw
Maria Kojoukhova,Finland,F,,,Open,52,51.85,,,,,85.0,87.5,90.0,90.0,,,,,90.0,4,B,Raw
Sara Carta,Italy,F,,,Open,47,46.7,,,,,72.5,75.0,77.5,77.5,,,,,77.5,2,B,Raw
Micaela Ödling,Sweden,F,,,Open,76,74.65,,,,,-115,-117.5,117.5,117.5,,,,,117.5,2,B,Raw
Pantea Supanetz,Austria,F,,,Open,63,62.75,,,,,105.0,107.5,-112.5,107.5,,,,,107.5,7,B,Raw
Nino Tchrikishvili,Georgia,F,,,Open,69,68.0,,,,,-100,100.0,-102.5,100.0,,,,,100.0,8,B,Raw
Matilda Hjälle,Sweden,F,,,Open,84+,109.3,,,,,140.0,147.5,152.5,152.5,,,,,152.5,2,B,Raw
Elín Melgar Aðalheiðardóttir,Iceland,F,,,Open,69,68.4,,,,,-100,102.5,-105,102.5,,,,,102.5,7,B,Raw
Jelena Bijelic,Austria,F,,,Open,52,51.7,,,,,-87.5,87.5,92.5,92.5,,,,,92.5,2,B,Raw
Elise Rosenborg,Norway,F,,,Open,63,62.35,,,,,107.5,112.5,115.0,115.0,,,,,115.0,1,B,Raw
Michelle Barth,Germany,F,,,Open,76,73.6,,,,,107.5,-112.5,-112.5,107.5,,,,,107.5,3,B,Raw
Charlotte MacPherson,UK,F,,,Open,69,67.65,,,,,95.0,-100,-102.5,95.0,,,,,95.0,9,B,Raw
Zijun Chen,UK,F,,,Open,57,56.25,,,,,97.5,100.0,105.0,105.0,,,,,105.0,3,B,Raw
Emelie Åslund,Sweden,F,,,Open,47,46.7,,,,,85.0,90.0,95.0,95.0,,,,,95.0,1,B,Raw
Benedetta Squillante,Italy,F,,,Open,63,60.55,,,,,102.5,107.5,110.0,110.0,,,,,110.0,3,B,Raw
Larissa Harshagen,Netherlands,F,,,Open,84+,107.2,,,,,107.5,112.5,-117.5,112.5,,,,,112.5,5,B,Raw
Kathrine Forsberg,Denmark,F,,,Open,69,68.85,,,,,112.5,-117.5,117.5,117.5,,,,,117.5,1,B,Raw
Hanna Buturlym,Ukraine,F,,,Open,57,56.45,,,,,97.5,102.5,107.5,107.5,,,,,107.5,2,B,Raw
Sheina Kaye,UK,F,,,Open,57,54.85,,,,,85.0,90.0,-92.5,90.0,,,,,90.0,6,B,Raw
Shelika Leidelmeijer,Netherlands,F,,,Open,52,51.0,,,,,72.5,-77.5,-77.5,72.5,,,,,72.5,7,B,Raw
Andrea Petrek,Croatia,F,,,Open,69,67.25,,,,,-112.5,112.5,115.0,115.0,,,,,115.0,2,B,Raw
Sofie Bengtson,Denmark,F,,,Open,76,74.9,,,,,105.0,-112.5,-112.5,105.0,,,,,105.0,4,B,Raw
Anna Cicognani,Italy,F,,,Open,57,56.65,,,,,100.0,107.5,112.5,112.5,,,,,112.5,1,B,Raw
Elin Kolding,Norway,F,,,Open,63,61.95,,,,,-105,105.0,112.5,112.5,,,,,112.5,2,B,Raw
Sonja Ruess,Austria,F,,,Open,63,61.55,,,,,97.5,102.5,105.0,105.0,,,,,105.0,8,B,Raw
Sopiko Kvantchiani,Georgia,F,,,Open,69,67.15,,,,,110.0,-115,-115,110.0,,,,,110.0,4,B,Raw
Roosa Valkola,Finland,F,,,Open,69,65.85,,,,,97.5,102.5,-105,102.5,,,,,102.5,6,B,Raw
Kirsty Russell,UK,F,,,Open,52,51.6,,,,,75.0,-80,80.0,80.0,,,,,80.0,5,B,Raw
Janneke Brauckman,Netherlands,F,,,Open,63,58.75,,,,,90.0,95.0,100.0,100.0,,,,,100.0,9,B,Raw
Vilma Olsson,Sweden,F,,,Open,76,75.4,,,,,112.5,117.5,120.0,120.0,,,,,120.0,1,B,Raw
Mari Beglarashvili,Georgia,F,,,Open,47,46.5,,,,,55.0,60.0,-67.5,60.0,,,,,60.0,5,B,Raw
Gigi Nicolson,UK,F,,,Open,47,46.3,,,,,60.0,65.0,-67.5,65.0,,,,,65.0,4,B,Raw
Phylicia Keizer,Netherlands,F,,,Open,76,74.0,,,,,90.0,97.5,102.5,102.5,,,,,102.5,5,B,Raw
Mariam Tsetskhladze,Georgia,F,,,Open,47,46.55,,,,,-60,-60,-67.5,-60,,,,,,DQ,B,Raw
Sofie Finková,Czechia,F,,,Open,52,51.85,,,,,77.5,80.0,-82.5,80.0,,,,,80.0,6,B,Raw
Patrycja Piec,Poland,F,,,Juniors,63,62.7,,,,,87.5,-90,92.5,92.5,,,,,92.5,3,B,Raw
Justyna Szarek,Poland,F,,,Juniors,69,67.95,,,,,92.5,-97.5,-97.5,92.5,,,,,92.5,3,B,Raw
Rebecca Croes,Netherlands,F,,,Juniors,57,55.55,,,,,-85,85.0,87.5,87.5,,,,,87.5,2,B,Raw
Anna-Maria Habermann,Germany,F,,,Juniors,76,73.55,,,,,85.0,90.0,-95,90.0,,,,,90.0,3,B,Raw
Floortje Leander,Netherlands,F,,,Juniors,84,83.2,,,,,90.0,95.0,-102.5,95.0,,,,,95.0,2,B,Raw
Sanne van Loon,Netherlands,F,,,Juniors,57,56.35,,,,,75.0,80.0,-85,80.0,,,,,80.0,4,B,Raw
Megan Davenport,UK,F,,,Juniors,52,48.45,,,,,62.5,65.0,67.5,67.5,,,,,67.5,3,B,Raw
Mélina Behava,France,F,,,Juniors,84,82.35,,,,,90.0,95.0,100.0,100.0,,,,,100.0,1,B,Raw
Emily Greaves,UK,F,,,Juniors,84+,95.6,,,,,-100,100.0,-105,100.0,,,,,100.0,2,B,Raw
Ivana Vogel,Netherlands,F,,,Juniors,84+,121.0,,,,,-117.5,117.5,-130,117.5,,,,,117.5,1,B,Raw
Nataliya Cheremenko,Ukraine,F,,,Open,52,51.95,,,,,82.5,87.5,92.5,92.5,,,,,92.5,3,B,Raw
Cathelijne Gort,Netherlands,F,,,Juniors,76,74.65,,,,,-95,95.0,-97.5,95.0,,,,,95.0,2,B,Raw
Marine Peltret,France,F,,,Juniors,63,61.75,,,,,97.5,102.5,107.5,107.5,,,,,107.5,1,B,Raw
Ida Janež,Slovenia,F,,,Juniors,63,62.3,,,,,82.5,-87.5,-90,82.5,,,,,82.5,5,B,Raw
Ouff Grothe Anna Pauline,Norway,F,,,Juniors,63,62.55,,,,,75.0,-80,-92.5,75.0,,,,,75.0,7,B,Raw
Viktorie Slavíková,Czechia,F,,,Juniors,47,46.8,,,,,57.5,-60,60.0,60.0,,,,,60.0,1,B,Raw
Eloïse Bastien,France,F,,,Juniors,43,42.4,,,,,60.0,65.0,-67.5,65.0,,,,,65.0,1,B,Raw
Olha Pavlii,Ukraine,F,,,Juniors,47,44.1,,,,,40.0,45.0,47.5,47.5,,,,,47.5,2,B,Raw
Riina Hartikainen,Finland,F,,,Juniors,52,50.15,,,,,57.5,62.5,-67.5,62.5,,,,,62.5,4,B,Raw
Aine O'Neill,Ireland,F,,,Juniors,63,61.65,,,,,67.5,72.5,75.0,75.0,,,,,75.0,6,B,Raw
Katarina Stojanović,Serbia,F,,,Juniors,69,67.7,,,,,70.0,75.0,77.5,77.5,,,,,77.5,4,B,Raw
Nilgün Arslan,Turkey,F,,,Juniors,63,62.0,,,,,60.0,65.0,67.5,67.5,,,,,67.5,8,B,Raw
Frederique Ubachs,Netherlands,F,,,Juniors,76,73.65,,,,,92.5,97.5,102.5,102.5,,,,,102.5,1,B,Raw
Katalin Lukacs,Netherlands,F,,,Juniors,69,68.7,,,,,85.0,90.0,95.0,95.0,,,,,95.0,2,B,Raw
Geneva Ponnou,UK,F,,,Juniors,57,55.6,,,,,65.0,67.5,70.0,70.0,,,,,70.0,5,B,Raw
Inès Herbaux,France,F,,,Juniors,52,51.75,,,,,80.0,85.0,90.0,90.0,,,,,90.0,1,B,Raw
Yasmin Burt,UK,F,,,Juniors,69,67.95,,,,,92.5,97.5,100.0,100.0,,,,,100.0,1,B,Raw
Emelie Olin,Sweden,F,,,Juniors,57,56.9,,,,,100.0,107.5,-112.5,107.5,,,,,107.5,1,B,Raw
Wiktoria Zapotoczna,Poland,F,,,Juniors,63,61.65,,,,,85.0,87.5,90.0,90.0,,,,,90.0,4,B,Raw
Elena Mijatović,Serbia,F,,,Juniors,84,76.95,,,,,85.0,90.0,92.5,92.5,,,,,92.5,3,B,Raw
Hilma Westerberg,Sweden,F,,,Open,63,62.9,,,,,110.0,-115,-117.5,110.0,,,,,110.0,5,B,Raw
Eva Bacova,Slovakia,F,,,Juniors,84,77.6,,,,,80.0,85.0,-92.5,85.0,,,,,85.0,4,B,Raw
Justyna Pietrykowska,Poland,F,,,Juniors,84,79.35,,,,,-82.5,82.5,-87.5,82.5,,,,,82.5,5,B,Raw
Matulin Melisa,Croatia,F,,,Juniors,57,54.5,,,,,77.5,82.5,85.0,85.0,,,,,85.0,3,B,Raw
Sara-Sofia Väliviita,Finland,F,,,Juniors,52,51.8,,,,,70.0,72.5,-75,72.5,,,,,72.5,2,B,Raw
Princess Kunadu,UK,F,,,Sub-Juniors,76,74.8,,,,,70.0,75.0,77.5,77.5,,,,,77.5,1,B,Raw
Katie Woods,UK,F,,,Sub-Juniors,57,55.85,,,,,72.5,75.0,77.5,77.5,,,,,77.5,2,B,Raw
Amanda Airasmaa,Finland,F,,,Sub-Juniors,84,83.75,,,,,-75,75.0,82.5,82.5,,,,,82.5,1,B,Raw
Nataša Mitrović,Serbia,F,,,Sub-Juniors,76,69.6,,,,,65.0,70.0,-72.5,70.0,,,,,70.0,3,B,Raw
Pauline Varnerot,France,F,,,Sub-Juniors,52,51.75,,,,,62.5,67.5,-70,67.5,,,,,67.5,3,B,Raw
Magdaléna Matesová,Czechia,F,,,Sub-Juniors,63,61.4,,,,,72.5,80.0,85.0,85.0,,,,,85.0,4,B,Raw
Milla Haapamäki,Finland,F,,,Sub-Juniors,63,62.45,,,,,87.5,-90,-90,87.5,,,,,87.5,2,B,Raw
Anni Palomäki,Finland,F,,,Sub-Juniors,57,56.7,,,,,67.5,72.5,-80,72.5,,,,,72.5,3,B,Raw
Maija Viljanen,Finland,F,,,Sub-Juniors,76,69.1,,,,,65.0,67.5,70.0,70.0,,,,,70.0,2,B,Raw
Katie Tatum,UK,F,,,Sub-Juniors,84,79.15,,,,,65.0,70.0,-80,70.0,,,,,70.0,3,B,Raw
Sandra Dzieżok,Poland,F,,,Sub-Juniors,57,56.2,,,,,57.5,-62.5,-62.5,57.5,,,,,57.5,5,B,Raw
Wiktoria Barańska,Poland,F,,,Sub-Juniors,57,54.35,,,,,72.5,75.0,77.5,77.5,,,,,77.5,1,B,Raw
Weronika Kamińska,Poland,F,,,Sub-Juniors,84,76.1,,,,,75.0,77.5,80.0,80.0,,,,,80.0,2,B,Raw
Oleksandra Zaikina,Ukraine,F,,,Sub-Juniors,76,72.35,,,,,57.5,-62.5,-62.5,57.5,,,,,57.5,4,B,Raw
Ninni Kopola,Finland,F,,,Sub-Juniors,63,62.45,,,,,80.0,82.5,87.5,87.5,,,,,87.5,3,B,Raw
Natalia Gogorova,Slovakia,F,,,Sub-Juniors,52,51.45,,,,,60.0,65.0,-70,65.0,,,,,65.0,4,B,Raw
Jana Rojková,Czechia,F,,,Sub-Juniors,69,68.45,,,,,95.0,-102.5,102.5,102.5,,,,,102.5,1,B,Raw
Violet Clarke Waller,UK,F,,,Sub-Juniors,52,52.0,,,,,50.0,55.0,-57.5,55.0,,,,,55.0,5,B,Raw
Maryan Elen Adote,Slovakia,F,,,Sub-Juniors,57,56.45,,,,,-55,55.0,62.5,62.5,,,,,62.5,4,B,Raw
Borsika Kőhalmi,Hungary,F,,,Sub-Juniors,69,63.5,,,,,65.0,70.0,-72.5,70.0,,,,,70.0,3,B,Raw
Jenna Tarvainen,Finland,F,,,Sub-Juniors,52,51.85,,,,,70.0,-72.5,-75,70.0,,,,,70.0,2,B,Raw
Essi Närvä,Finland,F,,,Sub-Juniors,69,67.1,,,,,80.0,-85,-85,80.0,,,,,80.0,2,B,Raw
Alona Malysheva,Ukraine,F,,,Masters 1,57,56.7,,,,,50.0,55.0,-62.5,55.0,,,,,55.0,3,B,Raw
Tetyana Shavidze,Ukraine,F,,,Masters 1,84,78.85,,,,,80.0,-85,85.0,85.0,,,,,85.0,4,B,Raw
Hanna Kadatska,Ukraine,F,,,Open,63,61.85,,,,,110.0,-115,-115,110.0,,,,,110.0,4,B,Raw
Yana Abolina,Ukraine,F,,,Open,63,61.2,,,,,102.5,107.5,-110,107.5,,,,,107.5,6,B,Raw
Anna Rykun,Ukraine,F,,,Open,57,56.95,,,,,-105,105.0,-112.5,105.0,,,,,105.0,4,B,Raw
Oryna Borovkova,Ukraine,F,,,Juniors,63,61.35,,,,,85.0,92.5,-95,92.5,,,,,92.5,2,B,Raw
Kateryna Muliar,Ukraine,F,,,Juniors,84,78.8,,,,,80.0,-85,-85,80.0,,,,,80.0,6,B,Raw
Vira Popruha,Ukraine,F,,,Juniors,84+,128.7,,,,,80.0,-90,-90,80.0,,,,,80.0,3,B,Raw
Khrystyna Ulianyk,Ukraine,F,,,Juniors,43,39.9,,,,,37.5,40.0,42.5,42.5,,,,,42.5,2,B,Raw
Sofiya Stanko,Ukraine,F,,,Sub-Juniors,63,60.9,,,,,87.5,95.0,-103,95.0,,,,,95.0,1,B,Raw
Yevheniia Hevko,Ukraine,F,,,Sub-Juniors,52,51.05,,,,,67.5,72.5,-75,72.5,,,,,72.5,1,B,Raw
Mick Ellender,UK,M,,,Masters 4,93,92.0,,,,,110.0,120.0,-130,120.0,,,,,120.0,2,B,Single-ply
Allan Fuglsang,Denmark,M,,,Masters 4,120,105.3,,,,,130.0,135.0,140.0,140.0,,,,,140.0,1,B,Single-ply
Kari Hollsten,Finland,M,,,Masters 4,93,91.65,,,,,130.0,135.0,140.0,140.0,,,,,140.0,1,B,Single-ply
Claude Sitruk,France,M,,,Masters 4,74,71.75,,,,,125.0,132.5,140.0,140.0,,,,,140.0,1,B,Single-ply
Hans Thyssing,Denmark,M,,,Masters 4,83,80.95,,,,,80.0,90.0,-97.5,90.0,,,,,90.0,1,B,Single-ply
Vidar Alexander Ringvold,Norway,M,,,Masters 3,120,116.2,,,,,-215,-217.5,-232.5,-215,,,,,,DQ,B,Single-ply
Anton Mihok,Slovakia,M,,,Masters 3,74,73.55,,,,,155.0,165.0,170.0,170.0,,,,,170.0,1,B,Single-ply
Ari Myllyniemi,Finland,M,,,Masters 3,105,103.65,,,,,100.0,115.0,130.0,130.0,,,,,130.0,3,B,Single-ply
Ronald Sura,Slovakia,M,,,Masters 3,83,81.35,,,,,130.0,135.0,142.5,142.5,,,,,142.5,3,B,Single-ply
Stig-Erik Björkqvist,Finland,M,,,Masters 3,83,80.6,,,,,177.5,182.5,187.5,187.5,,,,,187.5,2,B,Single-ply
Tomas Ring,Sweden,M,,,Masters 3,83,80.5,,,,,192.5,197.5,-207.5,197.5,,,,,197.5,1,B,Single-ply
Mariusz Hadrysiak,Poland,M,,,Masters 3,93,92.7,,,,,205.0,220.0,-238,220.0,,,,,220.0,1,B,Single-ply
Peer Haensicke,Germany,M,,,Masters 3,93,90.75,,,,,80.0,,,80.0,,,,,80.0,2,B,Single-ply
Štefan Koľšovský,Slovakia,M,,,Masters 3,59,57.35,,,,,125.0,130.0,-135,130.0,,,,,130.0,1,B,Single-ply
Andy Rigby,UK,M,,,Masters 3,120,109.25,,,,,222.5,227.5,230.0,230.0,,,,,230.0,1,B,Single-ply
Frans van der Putten,Netherlands,M,,,Masters 3,105,98.85,,,,,235.0,-245.5,-245.5,235.0,,,,,235.0,1,B,Single-ply
Torleif Carlsson,Sweden,M,,,Masters 3,105,104.75,,,,,180.0,190.0,-237.5,190.0,,,,,190.0,2,B,Single-ply
Mark Notschaele,Luxembourg,M,,,Masters 3,120+,122.0,,,,,190.0,200.0,210.0,210.0,,,,,210.0,1,B,Single-ply
Fabrice Leroy,France,M,,,Masters 3,120,105.35,,,,,215.0,-222.5,-230,215.0,,,,,215.0,2,B,Single-ply
Aarre Laurila,Finland,M,,,Masters 3,83,82.65,,,,,120.0,-132.5,-137.5,120.0,,,,,120.0,4,B,Single-ply
Vidmantas Baublys,Lithuania,M,,,Masters 2,66,65.25,,,,,127.5,135.0,140.0,140.0,,,,,140.0,3,B,Single-ply
Jukka Siltanen,Sweden,M,,,Masters 2,74,73.45,,,,,140.0,147.5,-152.5,147.5,,,,,147.5,2,B,Single-ply
Kalju Abner,Estonia,M,,,Masters 2,93,91.7,,,,,195.0,200.0,-205,200.0,,,,,200.0,3,B,Single-ply
Mario Schnurr,Germany,M,,,Masters 2,105,102.45,,,,,242.5,247.5,-255,247.5,,,,,247.5,2,B,Single-ply
Kjell Furesund,Norway,M,,,Masters 2,120+,130.65,,,,,220.0,-225,-257.5,220.0,,,,,220.0,2,B,Single-ply
Volodymyr Moroz,Ukraine,M,,,Masters 2,59,58.45,,,,,-105,-105,105.0,105.0,,,,,105.0,1,B,Single-ply
Oleksandr Chernyshov,Ukraine,M,,,Masters 2,66,65.0,,,,,157.5,-170,-172.5,157.5,,,,,157.5,1,B,Single-ply
Matthew Vincent,Luxembourg,M,,,Masters 2,105,102.8,,,,,180.0,185.0,190.0,190.0,,,,,190.0,5,B,Single-ply
Petteri Laurikainen,Finland,M,,,Masters 2,93,92.25,,,,,225.0,-250,-270,225.0,,,,,225.0,2,B,Single-ply
Juraj Stískal,Slovakia,M,,,Masters 2,120,119.35,,,,,245.0,252.5,-265,252.5,,,,,252.5,2,B,Single-ply
Maik Staegemann,Germany,M,,,Masters 2,66,65.25,,,,,157.5,-170,-172.5,157.5,,,,,157.5,2,B,Single-ply
Vesa Hartikainen,Finland,M,,,Masters 2,83,82.25,,,,,192.5,197.5,-220,197.5,,,,,197.5,1,B,Single-ply
Kaj Mattila,Finland,M,,,Masters 2,120,115.1,,,,,237.5,247.5,-262.5,247.5,,,,,247.5,3,B,Single-ply
Darren Ball,UK,M,,,Masters 2,120+,123.35,,,,,255.0,-265,-265,255.0,,,,,255.0,1,B,Single-ply
Rickard Sandstrom,Sweden,M,,,Masters 2,83,82.7,,,,,-170,170.0,-182.5,170.0,,,,,170.0,4,B,Single-ply
Peep Päll,Estonia,M,,,Masters 2,74,72.65,,,,,105.0,120.0,-135,120.0,,,,,120.0,3,B,Single-ply
Vitalijus Stachovas,Lithuania,M,,,Masters 2,83,81.9,,,,,180.0,187.5,192.5,192.5,,,,,192.5,2,B,Single-ply
Khaled Ghazal,Czechia,M,,,Masters 2,105,104.3,,,,,220.0,235.0,-250,235.0,,,,,235.0,4,B,Single-ply
Kaj Wasenius,Finland,M,,,Masters 2,105,103.85,,,,,140.0,165.0,-195,165.0,,,,,165.0,6,B,Single-ply
Radek Wasserbauer,Czechia,M,,,Masters 2,120,106.35,,,,,185.0,-200,-200,185.0,,,,,185.0,5,B,Single-ply
Bartosz Żelazko,Poland,M,,,Masters 2,74,73.7,,,,,182.5,-195,-195,182.5,,,,,182.5,1,B,Single-ply
René Perl,Germany,M,,,Masters 2,120,118.4,,,,,210.0,-222.5,-222.5,210.0,,,,,210.0,4,B,Single-ply
Grzegorz Nocek,Poland,M,,,Masters 2,93,92.4,,,,,270.0,-285,-300,270.0,,,,,270.0,1,B,Single-ply
Tomasz Dębicki,Poland,M,,,Masters 2,83,81.9,,,,,-180,180.0,190.0,190.0,,,,,190.0,3,B,Single-ply
Martin Green #1,UK,M,,,Masters 2,105,103.9,,,,,-230,-232.5,-237.5,-230,,,,,,DQ,B,Single-ply
Sven Stecklina,Germany,M,,,Masters 2,105,103.6,,,,,-232.5,235.0,-247.5,235.0,,,,,235.0,3,B,Single-ply
Thomas Wetzstein,Austria,M,,,Masters 2,105,94.9,,,,,-240,245.0,252.5,252.5,,,,,252.5,1,B,Single-ply
Jérôme Guidez,France,M,,,Masters 2,120+,148.75,,,,,210.0,-222.5,-222.5,210.0,,,,,210.0,3,B,Single-ply
Scott Simon #1,UK,M,,,Masters 2,120,115.95,,,,,260.0,275.0,-301,275.0,,,,,275.0,1,B,Single-ply
Kenneth Sandvik,Finland,M,,,Open,120+,141.0,,,,,-300,-300,300.0,300.0,,,,,300.0,4,B,Single-ply
Lionel Suc,France,M,,,Masters 1,83,82.15,,,,,180.0,182.5,-190,182.5,,,,,182.5,4,B,Single-ply
Cristian Turco,Italy,M,,,Masters 1,105,101.9,,,,,215.0,220.0,225.0,225.0,,,,,225.0,2,B,Single-ply
Roger Andersson,Sweden,M,,,Masters 1,105,103.95,,,,,210.0,217.5,-222.5,217.5,,,,,217.5,4,B,Single-ply
Thomas Edvinsson,Sweden,M,,,Open,93,92.2,,,,,262.5,270.0,-300,270.0,,,,,270.0,3,B,Single-ply
Robert Mihailov,Bulgaria,M,,,Masters 1,83,80.25,,,,,-187.5,187.5,-192.5,187.5,,,,,187.5,3,B,Single-ply
Ville Vaivila,Finland,M,,,Masters 1,66,65.5,,,,,75.0,122.5,,122.5,,,,,122.5,1,B,Single-ply
Christian Klotz,Austria,M,,,Open,105,104.55,,,,,-277.5,277.5,-287.5,277.5,,,,,277.5,4,B,Single-ply
Mikko Tiensuu,Finland,M,,,Masters 1,120,119.45,,,,,230.0,-260,270.0,270.0,,,,,270.0,1,B,Single-ply
Peter Zuberec,Slovakia,M,,,Masters 1,120,117.65,,,,,240.0,-250,-250,240.0,,,,,240.0,3,B,Single-ply
Dariusz Wszoła,Poland,M,,,Open,59,58.8,,,,,145.0,152.5,160.0,160.0,,,,,160.0,2,B,Single-ply
Tarmo Pärna,Estonia,M,,,Open,120+,135.1,,,,,195.0,310.0,-327.5,310.0,,,,,310.0,2,B,Single-ply
Ľubomír Pidanič,Slovakia,M,,,Masters 1,93,92.45,,,,,245.0,-252.5,252.5,252.5,,,,,252.5,1,B,Single-ply
Andy Cudd,UK,M,,,Masters 1,93,87.55,,,,,180.0,-190,-207.5,180.0,,,,,180.0,3,B,Single-ply
Graeme Reid,UK,M,,,Masters 1,120+,135.75,,,,,230.0,240.0,-250,240.0,,,,,240.0,1,B,Single-ply
Norbert Kropf,Germany,M,,,Masters 1,105,103.3,,,,,195.0,-205,217.5,217.5,,,,,217.5,3,B,Single-ply
Ricardo Roesler,Germany,M,,,Masters 1,93,90.5,,,,,-207.5,-207.5,-207.5,-207.5,,,,,,DQ,B,Single-ply
Jani Haapamäki,Finland,M,,,Open,74,73.7,,,,,195.0,202.5,215.0,215.0,,,,,215.0,1,B,Single-ply
Oleksandr Ahadzhanian,Ukraine,M,,,Open,59,59.0,,,,,-127.5,127.5,-140,127.5,,,,,127.5,3,B,Single-ply
Nash Hunter,UK,M,,,Masters 1,74,72.45,,,,,115.0,122.5,127.5,127.5,,,,,127.5,1,B,Single-ply
Tommy Krantz,Sweden,M,,,Open,83,82.1,,,,,-235,235.0,-245,235.0,,,,,235.0,4,B,Single-ply
Jozef Sotolar,Slovakia,M,,,Masters 1,83,82.6,,,,,225.0,-235,237.5,237.5,,,,,237.5,1,B,Single-ply
Sven Lange,Germany,M,,,Masters 1,120,119.55,,,,,-270,270.0,-272.5,270.0,,,,,270.0,2,B,Single-ply
Adam Balawejder,Poland,M,,,Masters 1,83,79.95,,,,,-230,232.5,-237.5,232.5,,,,,232.5,2,B,Single-ply
Andrii Balenkov,Ukraine,M,,,Open,83,81.95,,,,,-250,-255,255.0,255.0,,,,,255.0,2,B,Single-ply
René Groß,Germany,M,,,Masters 1,120+,126.6,,,,,-325,-325,-325,-325,,,,,,DQ,B,Single-ply
Rafał Zalewski,Poland,M,,,Open,93,91.8,,,,,-295,-295,297.5,297.5,,,,,297.5,2,B,Single-ply
Andy Champ,UK,M,,,Open,105,103.15,,,,,275.0,282.5,-287.5,282.5,,,,,282.5,3,B,Single-ply
Mads Friche,Denmark,M,,,Open,93,92.55,,,,,285.0,297.5,302.5,302.5,,,,,302.5,1,B,Single-ply
Thomas Korell,Germany,M,,,Masters 1,93,92.55,,,,,207.5,215.0,-247.5,215.0,,,,,215.0,2,B,Single-ply
Andreas Frasl,Austria,M,,,Open,66,65.2,,,,,-217.5,-217.5,-217.5,-217.5,,,,,,DQ,B,Single-ply
Mikko Hänninen,Finland,M,,,Masters 1,105,101.5,,,,,215.0,220.0,225.0,225.0,,,,,225.0,1,B,Single-ply
Milan Selinger,Czechia,M,,,Open,120,120.0,,,,,282.5,295.0,-305,295.0,,,,,295.0,5,B,Single-ply
Martin Andersson,Sweden,M,,,Masters 1,120+,141.2,,,,,-290,-290,-290,-290,,,,,,DQ,B,Single-ply
Aleksei Kadorko,Estonia,M,,,Masters 1,105,103.15,,,,,170.0,180.0,-185,180.0,,,,,180.0,5,B,Single-ply
Claus Piechatzek,Germany,M,,,Open,120+,150.2,,,,,-280,290.0,-305,290.0,,,,,290.0,6,B,Single-ply
Craig Coggle,UK,M,,,Open,120+,151.9,,,,,245.0,-265,-292.5,245.0,,,,,245.0,7,B,Single-ply
Jeppe Frost Balsby,Denmark,M,,,Open,105,104.25,,,,,245.0,255.0,-275,255.0,,,,,255.0,5,B,Single-ply
Róbert Nemes,Hungary,M,,,Open,93,92.25,,,,,222.5,232.5,242.5,242.5,,,,,242.5,7,B,Single-ply
Jaan Lahe,Estonia,M,,,Open,120+,128.1,,,,,-280,280.0,295.0,295.0,,,,,295.0,5,B,Single-ply
Vladyslav Protsenko,Ukraine,M,,,Open,74,73.85,,,,,210.0,-217.5,-217.5,210.0,,,,,210.0,3,B,Single-ply
Giovannino Pinna,Italy,M,,,Open,83,82.1,,,,,-220,-220,220.0,220.0,,,,,220.0,6,B,Single-ply
Michael Gibson #2,UK,M,,,Open,105,104.55,,,,,-275,-277.5,-285,-275,,,,,,DQ,B,Single-ply
Simon Beer,UK,M,,,Open,120,106.85,,,,,192.5,200.0,-210,200.0,,,,,200.0,6,B,Single-ply
Mariusz Grotkowski,Poland,M,,,Open,66,65.8,,,,,202.5,-210,-220,202.5,,,,,202.5,1,B,Single-ply
Alex Hochlov,Germany,M,,,Open,93,91.9,,,,,-262.5,262.5,-272.5,262.5,,,,,262.5,4,B,Single-ply
Per Marius Hole,Norway,M,,,Open,120,118.4,,,,,335.0,340.0,-376,340.0,,,,,340.0,1,B,Single-ply
Raik Günterberg,Germany,M,,,Open,83,82.6,,,,,245.0,252.5,257.5,257.5,,,,,257.5,1,B,Single-ply
Markus Ahonen,Finland,M,,,Open,120,119.2,,,,,307.5,312.5,322.5,322.5,,,,,322.5,2,B,Single-ply
Tomáš Novák #1,Czechia,M,,,Open,105,104.4,,,,,232.5,240.0,-250,240.0,,,,,240.0,6,B,Single-ply
Markus Glueck,Austria,M,,,Open,120,119.25,,,,,-290,295.0,305.0,305.0,,,,,305.0,3,B,Single-ply
Alex Fodor,UK,M,,,Open,74,73.6,,,,,205.0,212.5,-217.5,212.5,,,,,212.5,2,B,Single-ply
Daniel McGauley,UK,M,,,Special Olympics,59,57.15,,,,,80.0,87.5,95.0,95.0,,,,,95.0,1,B,Single-ply
Fredrik Eskil Myrvang,Norway,M,,,Open,59,57.55,,,,,185.0,190.0,-197.5,190.0,,,,,190.0,1,B,Single-ply
Mykhailo Shablii,Ukraine,M,,,Open,66,65.15,,,,,-185,185.0,-202.5,185.0,,,,,185.0,2,B,Single-ply
Marcel Vitz,Germany,M,,,Open,120,119.0,,,,,-275,-275,-277.5,-275,,,,,,DQ,B,Single-ply
Vadym Kvasiuk,Ukraine,M,,,Open,120+,124.55,,,,,-292.5,292.5,302.5,302.5,,,,,302.5,3,B,Single-ply
Martin Jensen,Denmark,M,,,Open,93,92.75,,,,,235.0,242.5,245.0,245.0,,,,,245.0,6,B,Single-ply
Ralf A. Male,Norway,M,,,Open,105,104.7,,,,,-297.5,-297.5,-305,-297.5,,,,,,DQ,B,Single-ply
Oliver Dahlkvist,Sweden,M,,,Open,105,104.45,,,,,295.0,302.5,320.0,320.0,,,,,320.0,1,B,Single-ply
Teemu Hällfors,Finland,M,,,Open,83,82.65,,,,,230.0,237.5,-255,237.5,,,,,237.5,3,B,Single-ply
Gheorghe Moise,Romania,M,,,Open,66,65.8,,,,,-165,165.0,170.0,170.0,,,,,170.0,3,B,Single-ply
Rasmus Mirblom,Sweden,M,,,Open,120+,148.2,,,,,-340,-340,340.0,340.0,,,,,340.0,1,B,Single-ply
Christian Flueras,Germany,M,,,Open,105,103.55,,,,,277.5,285.0,-300,285.0,,,,,285.0,2,B,Single-ply
Michal Vavrinec,Slovakia,M,,,Open,93,92.6,,,,,250.0,260.0,-272.5,260.0,,,,,260.0,5,B,Single-ply
Fredrik Soeberg,Norway,M,,,Open,120,119.8,,,,,292.5,297.5,302.5,302.5,,,,,302.5,4,B,Single-ply
Maciej Koloch,Poland,M,,,Open,74,73.1,,,,,192.5,200.0,-205,200.0,,,,,200.0,4,B,Single-ply
Maciej Zastawny,Poland,M,,,Open,83,82.85,,,,,235.0,-240,-240,235.0,,,,,235.0,5,B,Single-ply
Angus Gardner,UK,M,,,Open,93,92.15,,,,,-185,185.0,-202.5,185.0,,,,,185.0,8,B,Single-ply
Radosław Dębicki,Poland,M,,,Juniors,66,65.45,,,,,152.5,-157.5,-165,152.5,,,,,152.5,1,B,Single-ply
Richard Borsc,Slovakia,M,,,Juniors,74,73.65,,,,,170.0,180.0,-197.5,180.0,,,,,180.0,4,B,Single-ply
Oleh Chebotaiev,Ukraine,M,,,Juniors,74,72.6,,,,,200.0,-207.5,207.5,207.5,,,,,207.5,2,B,Single-ply
Rhys Davies #1,UK,M,,,Juniors,120+,138.6,,,,,-230,232.5,245.0,245.0,,,,,245.0,3,B,Single-ply
Christoph Toferer,Austria,M,,,Juniors,105,97.7,,,,,250.0,255.0,-265,255.0,,,,,255.0,1,B,Single-ply
Dmytro Pikulin,Ukraine,M,,,Juniors,93,92.55,,,,,200.0,220.0,235.0,235.0,,,,,235.0,2,B,Single-ply
Piotr Marzysz,Poland,M,,,Juniors,120+,132.65,,,,,235.0,250.0,257.5,257.5,,,,,257.5,1,B,Single-ply
Davide Cecchetti,Italy,M,,,Juniors,83,82.2,,,,,212.5,217.5,222.5,222.5,,,,,222.5,1,B,Single-ply
Carlo Schembari,Italy,M,,,Juniors,74,73.15,,,,,202.5,-207.5,210.0,210.0,,,,,210.0,1,B,Single-ply
Tomáš Runštuk,Czechia,M,,,Juniors,120,118.9,,,,,-207.5,-207.5,207.5,207.5,,,,,207.5,3,B,Single-ply
Šimon Král,Czechia,M,,,Juniors,120+,149.1,,,,,222.5,-242.5,-242.5,222.5,,,,,222.5,5,B,Single-ply
Joe Spring,UK,M,,,Juniors,120+,161.8,,,,,170.0,180.0,-190,180.0,,,,,180.0,6,B,Single-ply
Oleksii Lisenko,Ukraine,M,,,Juniors,120,113.8,,,,,235.0,250.0,260.0,260.0,,,,,260.0,1,B,Single-ply
Ondřej Smetaník,Czechia,M,,,Juniors,93,92.25,,,,,210.0,220.0,-230,220.0,,,,,220.0,3,B,Single-ply
Hermanni Järvenpää,Finland,M,,,Juniors,105,104.8,,,,,225.0,-252.5,-265,225.0,,,,,225.0,2,B,Single-ply
Dmytro Vovchok,Ukraine,M,,,Juniors,120+,131.6,,,,,230.0,245.0,-255,245.0,,,,,245.0,2,B,Single-ply
Vadym Rozdorozhnyi,Ukraine,M,,,Juniors,105,103.25,,,,,-255,-255,-255,-255,,,,,,DQ,B,Single-ply
Dawid Pietrykowski,Poland,M,,,Juniors,120+,125.6,,,,,235.0,-242.5,242.5,242.5,,,,,242.5,4,B,Single-ply
David Horník,Czechia,M,,,Juniors,83,82.4,,,,,125.0,-200,-202.5,125.0,,,,,125.0,3,B,Single-ply
Martin Řehák,Czechia,M,,,Juniors,74,73.35,,,,,190.0,195.0,-205,195.0,,,,,195.0,3,B,Single-ply
Radoslav Kalaidzhiev,Bulgaria,M,,,Juniors,83,82.7,,,,,182.5,-187.5,187.5,187.5,,,,,187.5,2,B,Single-ply
Jakob Grandl,Austria,M,,,Juniors,93,90.75,,,,,225.0,230.0,235.0,235.0,,,,,235.0,1,B,Single-ply
Brandon Lee #10,UK,M,,,Juniors,120,119.1,,,,,190.0,200.0,210.0,210.0,,,,,210.0,2,B,Single-ply
Eduard Andreiev,Ukraine,M,,,Juniors,74,72.8,,,,,170.0,-180,-195,170.0,,,,,170.0,5,B,Single-ply
Samuel Antalik,Slovakia,M,,,Juniors,66,62.75,,,,,90.0,100.0,-110,100.0,,,,,100.0,2,B,Single-ply
Pawel Wloch,Poland,M,,,Sub-Juniors,74,73.65,,,,,-130,130.0,150.0,150.0,,,,,150.0,3,B,Single-ply
Simon Dafner,Germany,M,,,Sub-Juniors,59,56.7,,,,,112.5,117.5,120.0,120.0,,,,,120.0,1,B,Single-ply
Dániel Sajben,Hungary,M,,,Sub-Juniors,59,57.55,,,,,110.0,-117.5,120.0,120.0,,,,,120.0,2,B,Single-ply
Aras Mesropyan,Turkey,M,,,Sub-Juniors,93,85.6,,,,,110.0,120.0,-130,120.0,,,,,120.0,3,B,Single-ply
Illia Myshkin,Ukraine,M,,,Sub-Juniors,74,73.95,,,,,160.0,175.0,185.0,185.0,,,,,185.0,1,B,Single-ply
Andrii Semeshkin,Ukraine,M,,,Sub-Juniors,93,92.0,,,,,200.0,207.5,-238.5,207.5,,,,,207.5,1,B,Single-ply
Andrian Utsar,Estonia,M,,,Sub-Juniors,120,118.8,,,,,-150,150.0,-172.5,150.0,,,,,150.0,1,B,Single-ply
Juraj Gabriel Blazicek,Slovakia,M,,,Sub-Juniors,105,102.2,,,,,195.0,215.0,-222.5,215.0,,,,,215.0,1,B,Single-ply
Václav Bartůněk,Czechia,M,,,Sub-Juniors,93,92.05,,,,,195.0,205.0,-215,205.0,,,,,205.0,2,B,Single-ply
Rico Pall,Estonia,M,,,Sub-Juniors,83,78.6,,,,,65.0,80.0,90.0,90.0,,,,,90.0,2,B,Single-ply
Oleksandr Ponomarenko,Ukraine,M,,,Sub-Juniors,66,65.25,,,,,155.0,-180,180.0,180.0,,,,,180.0,1,B,Single-ply
Gregory Pearson,UK,M,,,Sub-Juniors,83,81.6,,,,,220.0,-235.5,-235.5,220.0,,,,,220.0,1,B,Single-ply
Adrian Stiskal,Slovakia,M,,,Sub-Juniors,74,73.35,,,,,127.5,135.0,150.0,150.0,,,,,150.0,2,B,Single-ply
Arsen Stefanyshyn,Ukraine,M,,,Sub-Juniors,59,58.65,,,,,105.0,112.5,-120,112.5,,,,,112.5,3,B,Single-ply
Pavlo Mykytchuk,Ukraine,M,,,Sub-Juniors,53,51.95,,,,,105.0,120.0,-127.5,120.0,,,,,120.0,1,B,Single-ply
Françoise Heligon,France,F,,,Masters 4,52,50.3,,,,,45.0,47.5,50.0,50.0,,,,,50.0,1,B,Single-ply
Judith McGauley,UK,F,,,Masters 4,52,48.5,,,,,30.0,-35,-35,30.0,,,,,30.0,2,B,Single-ply
Britten Fernström,Sweden,F,,,Masters 4,57,56.25,,,,,70.0,72.5,75.5,75.5,,,,,75.5,1,B,Single-ply
Irja Määttänen,Finland,F,,,Masters 4,76,75.0,,,,,55.0,60.0,-62.5,60.0,,,,,60.0,1,B,Single-ply
Martine Roche,France,F,,,Masters 3,52,50.85,,,,,67.5,-72.5,-77.5,67.5,,,,,67.5,1,B,Single-ply
Evelyne Herbin,France,F,,,Masters 3,63,62.4,,,,,65.0,70.0,75.0,75.0,,,,,75.0,2,B,Single-ply
Audhild Mathiesen,Norway,F,,,Masters 3,57,56.45,,,,,85.0,-90,-93,85.0,,,,,85.0,1,B,Single-ply
Jackie Blasbery,UK,F,,,Masters 3,84+,99.05,,,,,95.0,107.5,120.0,120.0,,,,,120.0,1,B,Single-ply
Maureen Gordon,UK,F,,,Masters 3,69,68.3,,,,,117.5,123.0,125.0,125.0,,,,,125.0,1,B,Single-ply
Tone Glomstein,Norway,F,,,Masters 3,63,62.95,,,,,82.5,87.5,-92.5,87.5,,,,,87.5,1,B,Single-ply
Seija Skogman,Finland,F,,,Masters 2,76,70.8,,,,,97.5,102.5,-112.5,102.5,,,,,102.5,1,B,Single-ply
Erzsébet Schneider,Hungary,F,,,Masters 2,84+,84.4,,,,,82.5,-87.5,-87.5,82.5,,,,,82.5,2,B,Single-ply
Nellia Kosenko,Ukraine,F,,,Masters 2,63,62.3,,,,,70.0,-75,75.0,75.0,,,,,75.0,2,B,Single-ply
Florence Leccese,France,F,,,Masters 2,69,67.55,,,,,95.0,100.0,-102.5,100.0,,,,,100.0,2,B,Single-ply
Anita Traasdahl,Norway,F,,,Masters 2,57,55.8,,,,,-85,90.0,95.0,95.0,,,,,95.0,1,B,Single-ply
Eirin Herland,Norway,F,,,Masters 2,84+,89.15,,,,,-105,-105,-105,-105,,,,,,DQ,B,Single-ply
Päivi Ristolainen,Finland,F,,,Masters 2,84,81.2,,,,,80.0,90.0,95.0,95.0,,,,,95.0,3,B,Single-ply
Rachel Spragg,UK,F,,,Masters 2,63,62.4,,,,,-85,-87.5,-87.5,-85,,,,,,DQ,B,Single-ply
Géraldine Verlaine,France,F,,,Masters 2,52,51.15,,,,,75.0,77.5,80.0,80.0,,,,,80.0,1,B,Single-ply
Pernilla Röhr,Sweden,F,,,Masters 2,84,83.45,,,,,120.0,-127.5,127.5,127.5,,,,,127.5,1,B,Single-ply
Wendie Kirkland,UK,F,,,Masters 2,69,67.85,,,,,95.0,102.5,-105,102.5,,,,,102.5,1,B,Single-ply
Joanne Laird,UK,F,,,Masters 2,84+,132.85,,,,,155.0,-162.5,-162.5,155.0,,,,,155.0,1,B,Single-ply
Tiina Voho,Finland,F,,,Open,84,77.75,,,,,145.0,-157.5,-160,145.0,,,,,145.0,3,B,Single-ply
Erika Salamon,Hungary,F,,,Masters 2,63,57.4,,,,,102.5,110.0,115.0,115.0,,,,,115.0,1,B,Single-ply
Emma Stott,UK,F,,,Masters 2,57,56.0,,,,,80.0,-87.5,92.5,92.5,,,,,92.5,2,B,Single-ply
Stéphanie Bastien,France,F,,,Masters 2,84,82.1,,,,,-125,125.0,-127.5,125.0,,,,,125.0,2,B,Single-ply
Marcela Sandvik,Finland,F,,,Open,52,51.55,,,,,107.5,112.5,115.0,115.0,,,,,115.0,2,B,Single-ply
Jadwiga Radwańska',Poland,F,,,Masters 1,52,51.3,,,,,85.0,-90,-90,85.0,,,,,85.0,1,B,Single-ply
Petra Höglund,Sweden,F,,,Masters 1,84,76.9,,,,,130.0,135.0,-145,135.0,,,,,135.0,1,B,Single-ply
Joanne Parkin,UK,F,,,Masters 1,84+,120.85,,,,,110.0,120.0,127.5,127.5,,,,,127.5,2,B,Single-ply
Mélisa Meunier,France,F,,,Masters 1,63,60.1,,,,,82.5,-85,-87.5,82.5,,,,,82.5,2,B,Single-ply
Satu Sarpola,Finland,F,,,Masters 1,69,68.65,,,,,100.0,-107.5,-107.5,100.0,,,,,100.0,1,B,Single-ply
Anna Edvall,Sweden,F,,,Open,84+,97.9,,,,,-187.5,-187.5,-200,-187.5,,,,,,DQ,B,Single-ply
Linda Kristensen,Norway,F,,,Open,76,75.7,,,,,-162.5,162.5,-170,162.5,,,,,162.5,1,B,Single-ply
Agata Niewdana,Poland,F,,,Masters 1,63,62.0,,,,,82.5,85.0,-90,85.0,,,,,85.0,1,B,Single-ply
Amber Hinchelwood,UK,F,,,Masters 1,57,56.15,,,,,55.0,62.5,-67.5,62.5,,,,,62.5,1,B,Single-ply
Siobhan Taylor,UK,F,,,Masters 1,84+,119.05,,,,,165.0,-172.5,-200,165.0,,,,,165.0,1,B,Single-ply
Anja Klinger,Germany,F,,,Masters 1,84,81.4,,,,,95.0,107.5,125.0,125.0,,,,,125.0,2,B,Single-ply
Nicola Murphy,UK,F,,,Masters 1,52,51.2,,,,,62.5,67.5,-72.5,67.5,,,,,67.5,2,B,Single-ply
Maria Kamp Jensen,Denmark,F,,,Open,84+,105.7,,,,,-197.5,200.0,-215,200.0,,,,,200.0,1,B,Single-ply
Ankie Timmers,Luxembourg,F,,,Open,84,83.45,,,,,190.0,195.0,200.0,200.0,,,,,200.0,1,B,Single-ply
Ľubica Polkorábová,Slovakia,F,,,Open,69,64.6,,,,,120.0,130.0,-137.5,130.0,,,,,130.0,5,B,Single-ply
Anna-Eveliina Partanen,Finland,F,,,Open,69,67.8,,,,,-135,137.5,142.5,142.5,,,,,142.5,2,B,Single-ply
Kimberley Cowell,UK,F,,,Open,76,73.8,,,,,142.5,-147.5,152.5,152.5,,,,,152.5,4,B,Single-ply
Laura Savolainen,Sweden,F,,,Open,57,55.35,,,,,-125,125.0,-135,125.0,,,,,125.0,4,B,Single-ply
Maria Kojoukhova,Finland,F,,,Open,52,51.6,,,,,107.5,-112.5,115.0,115.0,,,,,115.0,3,B,Single-ply
Sofia Kamlund,Sweden,F,,,Open,84,83.4,,,,,-160,160.0,165.0,165.0,,,,,165.0,2,B,Single-ply
Maria Karjalainen,Finland,F,,,Open,57,56.3,,,,,-120,125.0,-135,125.0,,,,,125.0,5,B,Single-ply
Sandrine Quignaudon,Sweden,F,,,Open,52,51.2,,,,,-100,100.0,-107.5,100.0,,,,,100.0,4,B,Single-ply
Matilda Hjälle,Sweden,F,,,Open,84+,108.3,,,,,190.0,200.0,-215,200.0,,,,,200.0,2,B,Single-ply
Hilde Mikkelsen Haugen,Norway,F,,,Open,63,62.2,,,,,137.5,142.5,150.0,150.0,,,,,150.0,1,B,Single-ply
Emma Johannesson,Sweden,F,,,Open,63,62.25,,,,,127.5,-135,-137.5,127.5,,,,,127.5,5,B,Single-ply
Helen Quinn,UK,F,,,Open,57,54.0,,,,,95.0,-100,-100,95.0,,,,,95.0,6,B,Single-ply
Romina Basting,UK,F,,,Open,69,66.15,,,,,-112.5,112.5,-117.5,112.5,,,,,112.5,8,B,Single-ply
Elise Rosenborg,Norway,F,,,Open,63,62.2,,,,,137.5,142.5,-152.5,142.5,,,,,142.5,2,B,Single-ply
Ingvild Hansen,Norway,F,,,Open,69,68.2,,,,,152.5,157.5,162.5,162.5,,,,,162.5,1,B,Single-ply
Daria Ławniczak,Poland,F,,,Open,76,75.55,,,,,152.5,-157.5,157.5,157.5,,,,,157.5,3,B,Single-ply
Rachel Steedman,UK,F,,,Open,76,74.9,,,,,-152.5,155.0,157.5,157.5,,,,,157.5,2,B,Single-ply
Lucy Hart,UK,F,,,Open,63,62.9,,,,,100.0,105.0,110.0,110.0,,,,,110.0,6,B,Single-ply
Blanka Bartoňková,Czechia,F,,,Open,57,56.55,,,,,125.0,135.0,140.0,140.0,,,,,140.0,3,B,Single-ply
Ines Kahrer,Austria,F,,,Open,69,68.15,,,,,137.5,-142.5,-142.5,137.5,,,,,137.5,3,B,Single-ply
Kathryn Hall #2,UK,F,,,Open,69,64.4,,,,,122.5,127.5,-135,127.5,,,,,127.5,6,B,Single-ply
Lea-Sophie Gersberg,Germany,F,,,Open,63,62.1,,,,,-132.5,132.5,-137.5,132.5,,,,,132.5,4,B,Single-ply
Hanna Buturlym,Ukraine,F,,,Open,57,56.5,,,,,130.0,137.5,142.5,142.5,,,,,142.5,2,B,Single-ply
Katerina Pinionzh,Ukraine,F,,,Open,69,68.6,,,,,125.0,-135,-142.5,125.0,,,,,125.0,7,B,Single-ply
Natália Mikulášová,Slovakia,F,,,Open,69,65.25,,,,,120.0,125.0,132.5,132.5,,,,,132.5,4,B,Single-ply
Zuzanna Kula,Poland,F,,,Open,57,53.8,,,,,162.5,169.0,-173,169.0,,,,,169.0,1,B,Single-ply
Karolina Kołata,Poland,F,,,Open,84+,102.5,,,,,-197.5,-197.5,-197.5,-197.5,,,,,,DQ,B,Single-ply
Amalie Chelsea Stok,Denmark,F,,,Open,84+,115.75,,,,,140.0,145.0,147.5,147.5,,,,,147.5,3,B,Single-ply
Agnes Rudin,Sweden,F,,,Open,76,75.3,,,,,-165,-165,-165,-165,,,,,,DQ,B,Single-ply
Natalia Wójtowicz,Poland,F,,,Juniors,69,68.55,,,,,102.5,110.0,-120,110.0,,,,,110.0,1,B,Single-ply
Patrycja Piec,Poland,F,,,Juniors,63,62.7,,,,,125.0,130.0,-137.5,130.0,,,,,130.0,2,B,Single-ply
Anna-Maria Habermann,Germany,F,,,Juniors,76,73.0,,,,,135.0,-140,-140,135.0,,,,,135.0,2,B,Single-ply
Alona Didyuk,Ukraine,F,,,Juniors,57,56.8,,,,,95.0,100.0,102.5,102.5,,,,,102.5,1,B,Single-ply
Svitlana Skachko,Ukraine,F,,,Juniors,76,72.15,,,,,80.0,85.0,-90,85.0,,,,,85.0,4,B,Single-ply
Nataliya Cheremenko,Ukraine,F,,,Open,52,51.95,,,,,-115,115.0,117.5,117.5,,,,,117.5,1,B,Single-ply
Kateryna Muliar,Ukraine,F,,,Juniors,84,79.25,,,,,120.0,-130,-130,120.0,,,,,120.0,2,B,Single-ply
Viktorie Slavíková,Czechia,F,,,Juniors,47,46.25,,,,,75.0,-85,-85,75.0,,,,,75.0,1,B,Single-ply
Linnea Forslund,Sweden,F,,,Open,63,62.4,,,,,130.0,137.5,-145,137.5,,,,,137.5,3,B,Single-ply
Riina Hartikainen,Finland,F,,,Juniors,52,50.35,,,,,75.0,80.0,85.0,85.0,,,,,85.0,2,B,Single-ply
Kateřina Omelková,Czechia,F,,,Juniors,76,74.4,,,,,-85,85.0,90.0,90.0,,,,,90.0,3,B,Single-ply
Daria Frąckowiak,Poland,F,,,Juniors,69,63.5,,,,,87.5,92.5,-97.5,92.5,,,,,92.5,2,B,Single-ply
Daryna Mostova,Ukraine,F,,,Juniors,69,66.3,,,,,75.0,-80,-80,75.0,,,,,75.0,3,B,Single-ply
Myroslava Koshelyk,Ukraine,F,,,Juniors,52,51.05,,,,,85.0,90.0,-95,90.0,,,,,90.0,1,B,Single-ply
Sofiia Bzdyr,Ukraine,F,,,Juniors,63,57.35,,,,,65.0,72.5,75.0,75.0,,,,,75.0,3,B,Single-ply
Mariia Polianska,Ukraine,F,,,Open,47,46.55,,,,,80.0,-90,90.0,90.0,,,,,90.0,1,B,Single-ply
Vira Popruha,Ukraine,F,,,Juniors,84+,128.25,,,,,112.5,122.5,-130,122.5,,,,,122.5,1,B,Single-ply
Emelie Olin,Sweden,F,,,Juniors,63,59.65,,,,,117.5,125.0,135.0,135.0,,,,,135.0,1,B,Single-ply
Minka Poikselkä,Finland,F,,,Juniors,76,75.35,,,,,137.5,142.5,145.0,145.0,,,,,145.0,1,B,Single-ply
Martyna Janaszek,Poland,F,,,Juniors,57,56.5,,,,,55.0,95.0,-100,95.0,,,,,95.0,2,B,Single-ply
Justyna Pietrykowska,Poland,F,,,Juniors,84,79.6,,,,,75.0,130.0,135.0,135.0,,,,,135.0,1,B,Single-ply
Viktoriia Ashcheulova,Ukraine,F,,,Juniors,52,51.5,,,,,75.0,80.0,-87.5,80.0,,,,,80.0,4,B,Single-ply
Khrystyna Ulianyk,Ukraine,F,,,Juniors,43,39.5,,,,,40.0,47.5,50.0,50.0,,,,,50.0,1,B,Single-ply
Sara-Sofia Väliviita,Finland,F,,,Juniors,52,51.6,,,,,80.0,85.0,-90,85.0,,,,,85.0,3,B,Single-ply
Rehina Fursenko,Ukraine,F,,,Sub-Juniors,76,69.6,,,,,80.0,87.5,-92.5,87.5,,,,,87.5,1,B,Single-ply
Amanda Airasmaa,Finland,F,,,Sub-Juniors,84+,84.45,,,,,90.0,-100,105.0,105.0,,,,,105.0,1,B,Single-ply
Katie Tatum,UK,F,,,Sub-Juniors,84,80.35,,,,,97.5,105.0,-110,105.0,,,,,105.0,1,B,Single-ply
Karolina Milatova,Slovakia,F,,,Sub-Juniors,57,54.15,,,,,-80,-80,80.0,80.0,,,,,80.0,1,B,Single-ply
Sofiya Stanko,Ukraine,F,,,Sub-Juniors,63,60.95,,,,,125.0,-135,-135,125.0,,,,,125.0,1,B,Single-ply
Milla Haapamäki,Finland,F,,,Sub-Juniors,63,62.65,,,,,115.0,-122.5,-127.5,115.0,,,,,115.0,2,B,Single-ply
Emma Honkonen,Finland,F,,,Sub-Juniors,57,56.09,,,,,-80,-80,80.0,80.0,,,,,80.0,2,B,Single-ply
Maija Viljanen,Finland,F,,,Sub-Juniors,76,69.1,,,,,85.0,-90,-92.5,85.0,,,,,85.0,2,B,Single-ply
Dominika Ataieva,Ukraine,F,,,Sub-Juniors,69,68.4,,,,,95.0,100.0,-105,100.0,,,,,100.0,3,B,Single-ply
Ninni Kopola,Finland,F,,,Sub-Juniors,63,62.55,,,,,102.5,110.0,-115,110.0,,,,,110.0,3,B,Single-ply
Diana Tepliukh,Ukraine,F,,,Sub-Juniors,57,55.45,,,,,65.0,-72.5,72.5,72.5,,,,,72.5,3,B,Single-ply
Jana Rojková,Czechia,F,,,Sub-Juniors,69,65.3,,,,,132.5,-148,-148,132.5,,,,,132.5,1,B,Single-ply
Ana Maria Oproiu,Romania,F,,,Sub-Juniors,52,51.0,,,,,52.5,55.0,-60,55.0,,,,,55.0,4,B,Single-ply
Jenna Tarvainen,Finland,F,,,Sub-Juniors,52,51.75,,,,,-77.5,77.5,-92.5,77.5,,,,,77.5,2,B,Single-ply
Anastasiia Olentyr,Ukraine,F,,,Sub-Juniors,52,51.85,,,,,90.0,97.5,-102.5,97.5,,,,,97.5,1,B,Single-ply
Marjana Beljakova,Estonia,F,,,Sub-Juniors,69,68.4,,,,,-90,-95,-97.5,-90,,,,,,DQ,B,Single-ply
Yelyzaveta Andrieieva,Ukraine,F,,,Sub-Juniors,52,51.75,,,,,47.5,52.5,57.5,57.5,,,,,57.5,3,B,Single-ply
Essi Närvä,Finland,F,,,Sub-Juniors,69,67.15,,,,,95.0,-100,105.0,105.0,,,,,105.0,2,B,Single-ply
