Division,WeightClassKg,Place,Name,Team,BodyweightKg,Best3SquatKg,Best3BenchKg,Best3DeadliftKg,TotalKg,Equipment,Event,Sex,BirthDate
Boys,51.71,1,Carlos Luna,Hitchcock,51.26,131.54,65.77,136.08,333.39,Unlimited,SBD,M,
Boys,55.79,1,Carlos Gamez,Hitchcock,55.79,165.56,102.06,165.56,433.18,Unlimited,SBD,M,
Boys,55.79,2,Travis Hodges,Freeport Brazosport,55.16,108.86,81.65,97.52,288.03,Unlimited,SBD,M,
Boys,55.79,3,Hector Ortiz,Hitchcock,54.43,63.5,54.43,97.52,215.46,Unlimited,SBD,M,
Boys,59.87,1,Yves Pham,Alvin Shadow Creek,58.06,158.76,108.86,199.58,467.2,Unlimited,SBD,M,
Boys,59.87,2,Alexander Garibaldi,Freeport Brazosport,57.33,113.4,52.16,117.93,283.5,Unlimited,SBD,M,
Boys,67.13,1,Elite Vu,Alvin Shadow Creek,66.95,201.85,145.15,197.31,544.31,Unlimited,SBD,M,
Boys,67.13,2,Manny Williams,Freeport Brazosport,67.13,188.24,124.74,204.12,517.1,Unlimited,SBD,M,
Boys,67.13,3,Gilbert Anderson,Beaumont United,63.23,170.1,86.18,192.78,449.06,Unlimited,SBD,M,
Boys,67.13,4,Javion Overton,Beaumont United,66.5,156.49,104.33,158.76,419.57,Unlimited,SBD,M,
Boys,67.13,5,Aaron Thomas #9,Manvel,65.32,147.42,83.91,161.03,392.36,Unlimited,SBD,M,
Boys,67.13,6,Matthew Carillo,Manvel,63.59,127.01,90.72,142.88,360.61,Unlimited,SBD,M,
Boys,67.13,7,Dennis Triplett,Hitchcock,64.32,122.47,86.18,129.27,337.93,Unlimited,SBD,M,
Boys,67.13,8,Ryan Rivera,Stafford,66.32,102.06,70.31,142.88,315.25,Unlimited,SBD,M,
Boys,67.13,9,Trace Tucker,Alvin Iowa Colony,63.32,102.06,63.5,136.08,301.64,Unlimited,SBD,M,
Boys,74.84,1,Adriano Garza,Alvin Shadow Creek,69.31,199.58,92.99,183.7,476.27,Unlimited,SBD,M,
Boys,74.84,2,Ignacio Gomez,Manvel,69.04,156.49,113.4,199.58,469.47,Unlimited,SBD,M,
Boys,74.84,3,Julian Johnson,Manvel,71.85,145.15,120.2,190.51,455.86,Unlimited,SBD,M,
Boys,74.84,4,Adrian Porter,Alvin Iowa Colony,74.03,181.44,81.65,183.7,446.79,Unlimited,SBD,M,
Boys,74.84,5,Argenis Picasso,Hitchcock,74.84,147.42,83.91,149.69,381.02,Unlimited,SBD,M,
Boys,74.84,6,Jamarion Cooper,Hitchcock,72.57,149.69,90.72,127.01,367.41,Unlimited,SBD,M,
Boys,74.84,7,Ali Karn,Stafford,73.84,106.59,92.99,147.42,347,Unlimited,SBD,M,
Boys,82.1,1,Michael Hill,Freeport Brazosport,76.38,260.82,124.74,224.53,610.08,Unlimited,SBD,M,
Boys,82.1,2,Jaydon Smith,Alvin Shadow Creek,79.38,204.12,111.13,229.06,544.31,Unlimited,SBD,M,
Boys,82.1,3,Jared Dotson,Hitchcock,78.02,192.78,120.2,204.12,517.1,Unlimited,SBD,M,
Boys,82.1,4,Jasun Payne,Alvin Shadow Creek,81.19,183.7,115.67,215.46,514.83,Unlimited,SBD,M,
Boys,82.1,5,Henry Kalu,Alvin Iowa Colony,80.83,192.78,95.25,190.51,478.54,Unlimited,SBD,M,
Boys,82.1,6,Haydon Caston,Alvin Iowa Colony,81.1,183.7,102.06,183.7,469.47,Unlimited,SBD,M,
Boys,82.1,7,Criss Acuna,Freeport Brazosport,77.38,185.97,104.33,176.9,467.2,Unlimited,SBD,M,
Boys,82.1,8,Treyvon Hall,Hitchcock,79.38,163.29,102.06,156.49,421.84,Unlimited,SBD,M,
Boys,82.1,9,Ina Jackson,Alvin Shadow Creek,76.84,142.88,86.18,183.7,412.77,Unlimited,SBD,M,
Boys,89.81,1,Efren Figueroa,Alvin Shadow Creek,89.72,272.16,138.35,242.67,653.17,Unlimited,SBD,M,
Boys,89.81,2,Cameron Harris,Stafford,87.14,217.72,149.69,215.46,582.87,Unlimited,SBD,M,
Boys,89.81,3,Chiduwem Nwakamma,Manvel,88.36,222.26,120.2,195.04,537.51,Unlimited,SBD,M,
Boys,89.81,4,Pual Winfrey,Beaumont United,82.46,188.24,113.4,208.65,510.29,Unlimited,SBD,M,
Boys,89.81,5,Jeremiah Boatner,Beaumont United,84.46,161.03,106.59,208.65,476.27,Unlimited,SBD,M,
Boys,89.81,6,Darrin Adams,Hitchcock,83.91,181.44,95.25,192.78,469.47,Unlimited,SBD,M,
Boys,89.81,7,Ayden Salcedo,Manvel,87.18,145.15,97.52,208.65,451.32,Unlimited,SBD,M,
Boys,89.81,8,David Morales,Hitchcock,88,147.42,102.06,156.49,405.97,Unlimited,SBD,M,
Boys,89.81,DQ,Jonathan Avila,Stafford,89.45,,,,,Unlimited,SBD,M,
Boys,99.79,1,Nicholas Robinson,Manvel,93.53,219.99,124.74,233.6,578.33,Unlimited,SBD,M,
Boys,99.79,2,A'Marion Fuller,Manvel,99.34,183.7,133.81,217.72,535.24,Unlimited,SBD,M,
Boys,99.79,3,Jonathan Moore #9,Stafford,95.71,183.7,120.2,222.26,526.17,Unlimited,SBD,M,
Boys,99.79,4,Julian Alvarez,Freeport Brazosport,99.7,199.58,113.4,183.7,496.68,Unlimited,SBD,M,
Boys,99.79,5,Kameron Marks,Beaumont United,96.43,183.7,108.86,188.24,480.81,Unlimited,SBD,M,
Boys,99.79,6,Rana Rehman,Alvin Shadow Creek,98.43,165.56,102.06,210.92,478.54,Unlimited,SBD,M,
Boys,99.79,7,Qu'Mauri Hobbs-Walker,Freeport Brazosport,95.53,167.83,92.99,183.7,444.52,Unlimited,SBD,M,
Boys,109.77,1,Andre McDaniel,Alvin Shadow Creek,108.32,263.08,151.95,242.67,657.71,Unlimited,SBD,M,
Boys,109.77,2,Aidan Oliver,Alvin Shadow Creek,108.68,199.58,133.81,215.46,548.85,Unlimited,SBD,M,
Boys,109.77,3,Micheal Howard,Alvin Iowa Colony,107.41,195.04,113.4,204.12,512.56,Unlimited,SBD,M,
Boys,109.77,4,Zavier Presley,Alvin Shadow Creek,108.5,145.15,79.38,185.97,410.5,Unlimited,SBD,M,
Boys,109.77,5,Bruce Lee,Manvel,105.32,124.74,79.38,131.54,335.66,Unlimited,SBD,M,
Boys,109.77,DQ,Jeremiah Davis,Beaumont United,99.88,174.63,,,,Unlimited,SBD,M,
Boys,124.74,1,Larry Brooks,Manvel,114.58,283.5,129.27,249.48,662.24,Unlimited,SBD,M,
Boys,124.74,2,Albert Ruben,Hitchcock,118.75,238.14,149.69,210.92,598.74,Unlimited,SBD,M,
Boys,124.74,3,Max Rodriguez,Freeport Brazosport,117.3,226.8,163.29,204.12,594.21,Unlimited,SBD,M,
Boys,124.74,4,Jaxon Timon,Manvel,117.84,213.19,138.35,226.8,578.33,Unlimited,SBD,M,
Boys,124.74,5,Kristian Pryer,Freeport Brazosport,120.29,233.6,136.08,183.7,553.38,Unlimited,SBD,M,
Boys,124.74,6,Daniel Swiney,Alvin Iowa Colony,118.66,208.65,95.25,204.12,508.02,Unlimited,SBD,M,
Boys,124.74,7,Daniel Enriquez,Freeport Brazosport,117.57,204.12,106.59,192.78,503.49,Unlimited,SBD,M,
Boys,124.74,8,Ean Bressler,Stafford,117.57,233.6,81.65,163.29,478.54,Unlimited,SBD,M,
Boys,124.74,9,John Hines,Hitchcock,110.86,181.44,111.13,183.7,476.27,Unlimited,SBD,M,
Boys,124.74,10,Jaikuis Kenebrew,Beaumont United,119.57,197.31,83.91,183.7,464.93,Unlimited,SBD,M,
Boys,124.74,11,Jacob Vega,Alvin Iowa Colony,122.02,195.04,97.52,163.29,455.86,Unlimited,SBD,M,
Boys,124.74,12,Chukwuemeka Tasie,Alvin Iowa Colony,110.95,181.44,99.79,165.56,446.79,Unlimited,SBD,M,
Boys,124.74,DQ,Brandon Avila #3,Stafford,120.2,,,,,Unlimited,SBD,M,
Boys,124.74,DQ,Christian Gladney,Beaumont United,111.95,204.12,154.22,,,Unlimited,SBD,M,
Boys,139.71,1,Dylan Williams,Stafford,133.99,226.8,136.08,226.8,589.67,Unlimited,SBD,M,
Boys,139.71,2,Josiah Johnson,Manvel,129.82,195.04,145.15,183.7,523.9,Unlimited,SBD,M,
Boys,139.71,3,Zion Cooper,Beaumont United,138.53,204.12,147.42,165.56,517.1,Unlimited,SBD,M,
Boys,139.71,4,Tyson Windham,Alvin Iowa Colony,127.73,174.63,113.4,199.58,487.61,Unlimited,SBD,M,
Boys,139.71,5,Landon Guidry,Hitchcock,127.91,165.56,127.01,183.7,476.27,Unlimited,SBD,M,
Boys,139.71,6,John Mendoza,Freeport Brazosport,129.91,195.04,95.25,183.7,474,Unlimited,SBD,M,
Boys,139.71,7,Noah Smith,Alvin Iowa Colony,129.09,158.76,108.86,183.7,451.32,Unlimited,SBD,M,
Boys,139.71+,1,Jayden Simmons,Alvin Iowa Colony,148.78,176.9,106.59,190.51,474,Unlimited,SBD,M,
Boys,139.71+,DQ,Chase Murry,Alvin Shadow Creek,148.23,,,,,Unlimited,SBD,M,
